:1001000021000039225E0DCDE60D21DD171108001A
:100110000632CD310E3E0132974ACD400ECB57C04C
:10012000CB5F2006CB6F205218EBCB6F28E7CDE6D4
:100130000D2141031102010612CDF1BF2A974A2673
:1001400000CDA00D2A974A2600CDA00D219E0D11AD
:100150000B030602CDF1BFCDFDBC21974AFE1E2840
:100160001CFE20280CFE1F20DB35AFBE20D6341825
:10017000D3343E3DBE20CD3518CACD4302CD520208
:10018000CD9002CD7410CD2403219E4A3600119FDC
:100190004A015001EDB021591A3A974A3D280B57B0
:1001A0000100003E00EDB11520F6119E4A7EB728F1
:1001B00004EDA018F8219E4A110000AFBECA3D020E
:1001C000E5D5ED5FE60F211E00110700CD940DCDA2
:1001D000790DD60630FCC606110007CD940DD1E589
:1001E000215E4B19CDF7011922EE0113E122000027
:1001F000222B4CE12318C4E5D5212802E5219E4A93
:10020000197EE60FCB7E201CCB762014CB6E200C03
:10021000CB662004215F4AC9216F4AC921784AC9A7
:10022000217F4AC921874AC95F1D1600197ED12145
:10023000CE4A1977E1E67F3E38321F4CC9CD9E0287
:10024000C3CD0321234C11244C0116003E0077ED51
:10025000B0C9CDE60D2129031108010609CDF1BF72
:10026000213203110802060ACDF1BF213C03110817
:10027000040605CDF1BF2A974A2600CDA00D219E88
:100280000D110E040602CDF1BFCD690DCDFDBCC927
:1002900021411AAF7711421A011700EDB0C92A2B7C
:1002A0004C229C4A21591A3A974A3D281057AF01CF
:1002B0000000EDB11520FB219E4AB7ED42E53E83DB
:1002C000010000EDB103215E4BB7ED42B7ED425E98
:1002D0002356ED53984AE13E85010000EDB103211C
:1002E0005E4BB7ED42B7ED425E2356ED539A4AAFEF
:1002F000323B4C2A2B4C4D44215E4BE55E2356EBA2
:10030000B7ED42E12804232318F123237EB7C289E5
:10031000013AEE016F3AEF01673E1577233E2A77E7
:1003200022F000C9AF323B4CC947455420524541E9
:100330004459504C41594552204F4E45464C4F4F21
:100340005253454C45435420535441525420464C3B
:100350004F4F52FFFFFF01CD5202CD7410CD9002DE
:10036000AF323B4CED5B9C4AED532B4CDD21CE4A2A
:10037000215E4BDD7ED0FE8FCABB03CD250FDA8711
:10038000032323DD2318ECE5110700210000CD79BC
:100390000DE60ECD940D111E00197DE177E51107D4
:1003A00000210000ED5FE606CD940D7DE123772B63
:1003B000AFDD7730AFDD7760C36C033E01DD77FFE3
:1003C000DD77FEDD77FDAFDD772EC3CD03CD1A0ED1
:1003D0003E3032E103215E4BDD21CE4AFD21BE4B92
:1003E0003E00B7CACD03DD7ED0B7CA450DE55E231A
:1003F00056CDEC12E1DD7E00B7CA450DDD7ED0475B
:10040000E6E0C2820478FE0ACA8707FE0BCA8707A5
:10041000DD7E30B7CA26043DDD7730DD7ED0CB6788
:10042000CA4005C3DA05DD7E60B7C27B04DD7ED03D
:10043000CB672808ED5FE61FCBEF182AF5ED5FE6E6
:100440007F47ED5FE67F8047F1FE023816280FFEFA
:10045000047838062804E608180CE610180878E630
:1004600008180378E610C608DD77303E19DD77609E
:10047000DD7ED0CB67CA4005C3DA053DDD7760C3BA
:10048000C904DD7ED0FE45CA5A06FE46CA5A06CBCE
:100490006FC28708FE83CA500BFE84CACD0AFE8550
:1004A000CAAD0AFE8FCAAB0BC3450D32F000DD7E2C
:1004B000D032F400DD7E0032F500DD7E3032F60011
:1004C000DD7E6032F700C35D0DDDCBD066C2750501
:1004D000DD7E60FE09280BFE052823FE01283FC3B0
:1004E0004005CD5A0F281723CBBECBB6ED5F1F1F9B
:1004F0001FE6C0B6772B3E50DD7760C34005237EF4
:10050000E6C0280BFE80380C280F2B353518313506
:10051000352B182C2B3434182734342B1822237EF7
:10052000E6C0280CFE80380E28122B353535181001
:100530003535352B180A2B34343418043434342B25
:10054000119919ED534C05E55E2356210000CD604D
:1005500012E1DD7ED0E6F8CA5B05C93A224CCB7FBA
:100560002808CD250FDC470F1808CD250F3003C311
:10057000290DC3450DDD7E60FE18CAA605FE0CCA16
:10058000C805FD7E00B7C2CE0511B119CD43053AAD
:10059000224CCB7F2808CD250FDC470F1805CD2531
:1005A0000F3000C3450D3A1E4CDD3430DD3460E6BB
:1005B000C3CAA305DD3530DD3560DD7E603E0AFD52
:1005C0007700CDDD05C38905CD4107C38905DD343D
:1005D00060FD3500FD7E00C38905C3450DE5212B77
:1005E0004C5E2356E1ED5F4FED5FE603B7CA0B06A5
:1005F000FE02DA2206CA36067AE63FD60E38DEF664
:1006000080577B77237A772BC34E067BD60EFE1E50
:1006100038CB5F7AE63FF640577B77237A772BC358
:100620004E067AE63F7AC60EFE3030B1577B77230E
:100630007A772BC34E067BC60EFE88D2DD055F7A25
:10064000E63FF6C0577B77237A772BC34E06CDED76
:100650000F7E9177237E90772BC9DD7E6047DD7E0C
:1006600000B83803DD7760DD7E30B7CA78063DDD3F
:100670007730CA1507C3E506CDED0F79B7C2E2069C
:1006800078B7C2E206CD8E0DFE803803CD4107CD8E
:100690003A0A3A2B4C9330042812ED444F3A2C4C32
:1006A000E63F923004280CED44B93807CD2D0A38C6
:1006B00019181FCD250A3802180823CBFECBF62BBC
:1006C000181823CBBECBF62B181023CBBECBB62BE2
:1006D000180823CBFECBB62B1800CD5A0F2803C326
:1006E0000D07CD3C093A224CB72811CB7F2808CD05
:1006F000250FDC780A280DCD250F1808CD250F30E1
:1007000003C3290D11C919CD4305C3450D3E12DDA3
:100710007730C3E506237E2BE6C0280CFE80381018
:1007200028147ED607771816237ED607772B180E47
:100730007EC607771808237EC607772B1800C3E507
:1007400006E5AF219E4AAF010000EDB1032BDD7E2F
:10075000D0FE132808FE462804360A1802360B116C
:10076000300019360111F000193600E17E5F237E5A
:10077000572BE5210000B7ED42B7ED42015E4B0972
:100780007B77237A77E1C9FD7E00FE01CAD007FEA0
:1007900002CAF907CDED0F78B7C2740879B7C274F1
:1007A00008CD5A0FC22608237E2BE6C0280AFE80F9
:1007B000380C280E353518102335352B180A3434EB
:1007C00018062334342B18003E01FD7700C333088C
:1007D000237E2BE6C0280AFE80380C280E353518FB
:1007E000102335352B180A343418062334342B18CB
:1007F000003E02FD7700C33308237E2BE6C0280BA2
:10080000FE80380E28113535351813233535352B34
:10081000180C3434341807233434342B18003E00B9
:10082000FD7700C33308DD7ED0FE0BE5CC1C10E164
:10083000C37408CD250F30333A2C4CE6C017171778
:1008400047237E2BE6C01717173C3CE6034FC53AFB
:10085000224CCB7F2009C179A8CA7408C3290DC1D5
:10086000793CE603A8CA7408C3290D11E119CD43E8
:1008700005C3450DAFDD77D0DD7700FD770036008D
:100880002336002BC3450DDD7E6047DD7E00B83882
:1008900003DD7760DD7ED0FE232807DD7E30B7CA1A
:1008A0005509CDED0F78B7C2380979B7C23809CDEF
:1008B000160ACAF108CD250ACA0009CD2D0ACA1C9C
:1008C00009CD420ACD5A0FCA3809CD500ACD5A0F68
:1008D000C2D608C33809CD420ACD5A0FCA3809CD4D
:1008E000420ACD420ACD5A0FCA3809CD500AC33840
:1008F00009237EF6C0772BCD5A0FCA3809C3D60814
:10090000CD2D0A380823CBFECBB62B180623CBBE41
:10091000CBB62BCD5A0FCA3809C3D608CD250A3815
:100920000823CBBECBF62B180623CBFECBF62BCD64
:100930005A0FCA3809C3D608115509D5237E2BE6AC
:10094000C02808FE803808280835C923352BC9344B
:10095000C923342BC9FD7E30EE01FD7730B7280561
:1009600011F919180311111ACD43053A224CB72871
:1009700014CB7F2808CD250FDC5A0A1810CD250F7F
:10098000DC6D0A1808CD250F3003C3290DDD7E303C
:10099000EEFFDD7730C3450DCD3A0AF532090A7B0B
:1009A00032070AF1E6C02810FE023814281C7BD654
:1009B00007FE1EDA130A181C7AD607DA130A18146F
:1009C0007BC607FE88D2130A180A7AC607FE2BD206
:1009D000130A1800CD420ACD5A0FCA060ACD500A92
:1009E000CD5A0FCA060ACD500ACD5A0FCA060ACDF3
:1009F000420ACD420A237EE6C0473A090AE63FB0E2
:100A000032090A2B18CE1E0016007B77237A772B2B
:100A1000C33809C3D608CD3A0AE52A2B4C7CE63FF9
:100A200067ED52E1C9CD3A0A3A2B4C93C9CD3A0A47
:100A30007AE63F3A2C4CE63F92C95E237EE63F576A
:100A40002BC9237EE6C0C640477EE63FB0772BC960
:100A5000CD420ACD420ACD420AC93A264CFE02DDF9
:100A60007E0020033D28013DDD7700281F3A1F4C02
:100A70003D321F4CCA290DC93A264CFE02DD7E00CC
:100A800020033D28013DDD77002814C9DD7E604745
:100A9000AFDD77603A1F4C8030023EFF321F4CAF13
:100AA000DD7700DD7730DD7760FD7700C93A3B4CBC
:100AB000B72807AFDD7700C3450DCD250F30053EC4
:100AC00001323B4C11291ACD4305C3450DDD7E3063
:100AD000B73A974A200F3DD9875F160021F00A19CF
:100AE0005E2356EBE93DD9875F160021F40A18EF23
:100AF000F80A220B070B310BD93A411AFE03DA45EB
:100B00000DDD7730C3450DD93A2F4CB7C2450DCD19
:100B1000250FD2470B3E01322F4C3E0232244CC3EC
:100B2000450DD93A411AFE02DA450DDD7730C3454D
:100B30000DD93A304CB7C2450DCD250FD2470B3EEB
:100B40000132304CC3450D113B1ACD4305C3450D51
:100B50003A3B4CB72002181211351ACD4305CD256A
:100B60000FCD160ACA730BC3450D112F1ACD4305BD
:100B7000C3450D110601060B21960BCDF1BF1108DF
:100B800002060A21A10BCDF1BFCD690DCDFDBC211F
:100B9000974A34C37D01464C4F4F5220434C454148
:100BA000524E45585420464C4F4F52E53A2B4C5F1D
:100BB0003A2C4C57CDEC12CD400E321E4C083A2246
:100BC0004CB7C2F20C08CB6FC2B90CCDDC0C2109BA
:100BD00019228B0C083A304CB7200B3A254CEEFF0B
:100BE00032254CCA8A0C08CB47200FCB4F202DCB87
:100BF00077204CCB7F206CC38A0C3A2C4CE63FCA42
:100C0000090CD607DAA60C20F93EC0212C4CB67789
:100C10002BCD5A0FB7C28A0C35C3830C3A2C4CE645
:100C20003FCA2B0CD607DAA60C20F93E3F212C4CEC
:100C3000A677CBF62BCD5A0FB7C28A0C3418443A9C
:100C40002B4CD61ECA4E0CD607DAA60C20F93E3F16
:100C5000212C4CA677CBFE2BCD5A0FB7C28A0C2382
:100C60003418203A2B4CD61ECA720CD607DAA60CC2
:100C700020F93E3F212C4CA6772BCD5A0FB7C28AC4
:100C80000C233521214C3EFFAE772109193A214C26
:100C90003C111800CD940D3A2B4C5F3A2C4C57CD9B
:100CA0006012E1C3450D3A2C4CE6C0CA720CFE80BE
:100CB000DA2B0CCA4E0CC3FA0B08B7C2D10C3E0A91
:100CC00032224CCD1010113919ED538B0C08C3D4BE
:100CD0000B116919ED538B0C08C3D40B083A224C45
:100CE0004708CB78C808E13E80F60A32224C08C398
:100CF000D40BFE80CAC50BE680C2110D21224C7EAA
:100D00003D77113919ED538B0CC2250DCBFEC32550
:100D10000D21224C7E3D77E67F113919ED538B0C66
:100D2000C2250DCBBE08C3D40BCD1A0E213A0D112E
:100D30000000060BCDF1BFC357036265656E206BE3
:100D4000696C6C65643AE1033D32E1032323DD23E2
:100D5000FD23D9CD400ECB57C0D9C3E003310000ED
:100D6000C93E3218063E2518023EFF01000003006E
:100D70000000000000A8C818F5E5D5210000545D6A
:100D800029291911475D19227C0D7CD1E1C9CD7942
:100D90000DE6C0C9B7C8193D20FCC900000000001D
:100DA000119B0D011027CDDA0D01E803CDDA0D01FD
:100DB0006400CDDA0D010A00CDDA0D7D12060511B1
:100DC0009B0D1AFE00280218081310F60601119F49
:100DD0000D1A0E3081121310F8C9AFED4238033CE2
:100DE00018F9091213C9F5D5E5C53E0021ED131117
:100DF000EE1377015F03EDB0CD1A0EC1E1D1F1C959
:100E0000F5D5E5C521ED1336FF11EE13015F03EDB6
:100E1000B0CD1A0ED9C1E1D1F1C93E0611000021B1
:100E2000ED13D5F50690CDD0BF23F1D1143D20F2BE
:100E3000C90E06C5D5CDD0BFD11423C10D20F4C92C
:100E4000F3AFD3113E08D311CDAD8ADB10E6E047F6
:100E5000AFD3113E10D311CDAD8ADB10E60FB0FB3E
:100E6000C97E4FD61ECA7D0ED607CA7D0E30F9FE4A
:100E7000FD3804ED441804C607ED448177237E2B2A
:100E80004FE63FC8D607C830FBFEFD3804ED4418D6
:100E900004C607ED448123772BC95E23562B3A2CD9
:100EA0004CE6C0CACC0EFE80DAEA0ECA070F3A2C16
:100EB0004CE63F92FE0338052F3CFE03D03A2B4C04
:100EC00093FE06D82F3CFE03DA290DC93A2B4C932A
:100ED000FE0338052F3CFE03D03A2C4CE63F92FE31
:100EE00003D82F3CFE03DA290DC93A2C4CE63F9279
:100EF000FE0338052F3CFE03C93A2B4C93FE03DA60
:100F0000290D2F3CFE06C93A2B4C93FE0338052FC2
:100F10003CFE03D03A2C4CE63F92FE03DA290DD872
:100F20002F3CFE06C95E237E2BE63F573A2B4C939F
:100F3000FE0338052F3CFE03D03A2C4CE63F92FED0
:100F400003D82F3CFE03C9E55E2356CDEC122141A8
:100F50001A7E3C77E1AFDD7700C9E5CD600FE1C9CE
:100F6000E55E23562BEB3E3FA4010000280804D683
:100F700007DAEA0F20F87DD61E28080CD607DAEA31
:100F80000F20F87CE6C0CAD40FFE80DABD0FCAA7D6
:100F90000F21BB1159160019111100041910FD225F
:100FA0002D107EE680E1C9213C115916001911105F
:100FB00000041910FD222D107EE680E1C921BB112D
:100FC0005916001923111100041910FD222D107E4D
:100FD000E680E1C9212C11591600191110000419DD
:100FE00010FD222D107EE680E1C9E1AFC9010000AD
:100FF0007E5F237EE63F572B7BD61E2807D6072829
:101000000330FA4F7AB72807D607280330FA47C9C2
:1010100021244C5E1C1DC81D73212B4C08326E1000
:10102000223710CD5A0FDA6D10CA6D102100004E14
:101030000CCA621036002100002270105E23567A1E
:10104000E6C02818FE80380E28061DCDEC12181DAB
:1010500014CDEC1218171CCDEC12181115CDEC1292
:10106000180BDD7ED0FE8F2004AF32244C3E0021D1
:10107000000008C9CDE60D217A1A3A974A3D11C9F8
:1010800000CD940D114C11016000EDB011CC113E5A
:101090000713F5010F00EDB01313F13D20F4111EFD
:1010A00006DD214C11FD21CC11DD7E00E6802808F3
:1010B000D5215412CD6012D1DD23FD7E00E68028BB
:1010C0000FD5215A121515151515151DCD6012D104
:1010D000FD233E07835FFE8EC2A9103E078257FEA6
:1010E0003728071E1EFD23C3A9100E023E1B32F631
:1010F00010160006061E00C5D52153030603CD6257
:1011000012D1C13E08825710EC3E8D32F6100D20F0
:10111000E00E0F3E24321D11160606061E00C5D530
:101120002156030601CD6212D1C13E07825710EC51
:101130003A1D11C607321D110D20DDC9FFFFFFFF4B
:0C114000FFFFFFFFFFFFFFFFFFFFFFFFAF
:1011AC00FFFFFFFFFFFFFFFFFFFFFFFFFFFFFFFF43
:1011BC00FFFFFFFFFFFFFFFFFFFFFFFFFFFFFFFF33
:0111CC00FF23
:0211DC00FFFF13
:0211ED00FFFF02
:0211FE00FFFFF1
:02120F00FFFFDF
:02122000FFFFCE
:02123100FFFFBD
:02124200FFFFAC
:10125300FF0101010101013F000000000006067AC1
:10126300E6C0281FFE80381428093E12856F30130C
:101273002418103E0C856F300A2418073E06856F2C
:101283003001247B32AD127AE63F160014D60830C3
:10129300FB15C60832B6124F3E089132DC127AE5CE
:1012A30021ED13119000CD940D1E00160019EBE1F2
:1012B300E5C50E007E0879B7280708CB270D20FB6C
:1012C30008084F1AB112231310E8EB11900019C14B
:1012D3007D903001256FEBE10E007ECB3F0D20FBAF
:1012E3004F1AB112231310F0C921571306067B328C
:1012F30018137AE63F160014D60830FB15C60832D9
:1013030021134F3E08913247137AE521ED131190D3
:1013130000CD940D1E00160019EBE1E5C50E007E0D
:101323000879B728070837170D20FB08084F1AA1BB
:1013330012231310E8EB11900019C17D90300125A1
:101343006FEBE10E007E371F0D20FB4F1AA1122316
:0A1353001310F0C9C0C0C0C0C0C034
:1017DD0000000000000000000000000000000000FC
:1017ED0000008060800000C0300C0830C0C03008A0
:1017FD0010E00000000000000000000000000000EC
:10180D00000000000000000000000080C00000800B
:10181D00601018060100010E030000000000000119
:10182D00000000030C3040800080E000000000004C
:10183D0000000000000000000000C0300E014F66E7
:10184D00F1E0F05858402080E0F880F0C0E0F0D88A
:10185D0068A9C3428286840C1879F6E1C18638C026
:10186D00000000000000008040201806010000006C
:10187D00000F3F7FFEF8F8F0FEFFFFFFFFFFFFFFB9
:10188D00FFFFFFFFFFFFFF7E7E7D7D787D3F1F0FFA
:10189D000000030C7080000000FF0000000000003D
:1018AD0000F80808F000FC2E6FD7077F8000F800C5
:1018BD00F0504C4EFF07F70F4E4CD400F0504848F7
:1018CD00F80000000000000F30C078474040404055
:1018DD0044444445454544444544444544444545B4
:1018ED0045444544444445444445454545444544A3
:1018FD0044444544444440404040407F000C3F1F19
:10190D000C0000003F3F0C00000C1F370C00000CBA
:10191D003F3F0000000C1F3F0C0000201F1F2C003C
:10192D00000C3F170C00002C1F1F2000000C3F1F48
:10193D000C08080C3F3F0C00080C1F370C00000C66
:10194D003F3F0C08000C1F3F0C08082C1F1F2C00DC
:10195D00080C3F170C00002C1F1F2C081E0C3F1FDE
:10196D000407000E3F3F080838041F3F0C1E0808EF
:10197D003F3F0E001E0C1F3F0407002E1F1F28089F
:10198D0038043F1F0C1E08281F1F2E0000181C1C9A
:10199D00180000181C1C1800000C1A1E0C00000C5E
:1019AD001A1E0C00032E3F3F2E0300203F3F2E1822
:1019BD00182E3F3F2E18182E3F3F2000030E1F1FDD
:1019CD000E0310181E1F0F1A180E1F1F0E181A0FB8
:1019DD001F1E181000001818000000001818000035
:1019ED00000018180000000018180000000C1F3F20
:1019FD00040700201F1F280838043F1F0C0008286B
:101A0D001F1F2000000C3F1F040700003F3F080868
:101A1D0038041F3F0C0008083F3F000020283A0DF6
:101A2D0002003E29293D293E3E3F3F3F3F3E1C16C9
:101A3D001A161E0E0000000000000000000000003D
:101A4D000000000000000000000000000101010185
:101A5D0001018384858F00010101020201838485C8
:101A6D008F000101010202018384858F0000008037
:101A7D008080000000000000800080000000000059
:101A8D008000800080008080008080008080008049
:101A9D0080000080000000000080000080000080B9
:101AAD0080808000800080000000800000000080A9
:101ABD008080800080800000800080008080008019
:101ACD000000800000808000808080008080000009
:101ADD000000008000808000000000800080000079
:101AED008080008000000080008000808000808069
:101AFD000000808080800080800080800000008059
:101B0D0080800000808000800080000000800080C8
:101B1D000080808080800080000080000000000038
:101B2D0000800000800000008000800080800000A8
:101B3D000000008000000000000000000000000018
:101B4D000000000000000000000000000000000088
:101B5D000000000000000000000000000000000078
:101B6D000000000000000000000000000000000068
:101B7D000000000000000000000000000000000058
:101B8D000000000000000000000000000000000048
:101B9D000000000000000000000000000000000038
:101BAD000000000000000000000000000000000028
:101BBD000000000000000000000000000000000018
:101BCD000000000000000000000000000000000008
:101BDD0000000000000000000000000000000000F8
:101BED0000000000000000000000000000000000E8
:0F1BFD00000000000000000000000000000000D9
:104A5F000101010101010101010101010101010137
:104A6F0001010101181818010118303060609060C1
:104A7F003050700118181860010101010101010186
:0F4A8F0001010101010101B00000000000000061
:0D4C1E000000000000000000000000000089
:0D4C2F000000000000000000000000000078
:00000001FF
