:10010000CD0FBD222E0106FFC5CD37016F2600CDD4
:100110004201110000213D010605CDF1BFCDFDBC1E
:10012000C110E5C9E5210000545D2929191100001D
:10013000192226017CE1C9CD2401E603C900000093
:100140000000113D01011027CD7C0101E803CD7CA9
:1001500001016400CD7C01010A00CD7C017D120605
:1001600005113D011AFE00280218081310F60601B9
:100170001141011A0E3081121310F8C9AFED423847
:08018000033C18F9091213C930
:00000001FF
