:100100002100003922C51F22860122B104CD4D20D5
:1001100021712A1108000632CD98203E0132EC5F91
:10012000CDA720CB57C0CB5F2006CB6F205418EB58
:10013000CB6F28E7CD4D20219A041102010612CD84
:10014000F1BF2AEC5F2600CD07202AEC5F2600CD08
:100150000720210520110B030602CDF1BFCDFDBC08
:1001600021EC5FFE1E281EFE20280CFE1F20DB3522
:10017000AFBE20D63418D3343AEB5F3CBE20CB352B
:1001800018C8CD0C02310000CD1B02CD5902CD089C
:1001900023CDED0221F35F360011F45F015001ED34
:1001A000B021E32D3AEC5F3D280B570100003E00E3
:1001B000EDB11520F611F35F7EB72804EDA018F815
:1001C00021F35F110000AFBECA0202E5D5ED5FE684
:1001D0000F211E00110700CDFB1FCDE01FD60730F9
:1001E000FCC607110007CDFB1FD1E521B36019CD77
:1001F0000D031922F90113E1220000228061E1239D
:1002000018C4CD6702AFCD5E03C323052178611109
:1002100079610132003E0077EDB0C9CD4D202182D9
:10022000041108010609CDF1BF218B041108020653
:100230000ACDF1BF2195041108040605CDF1BF2AAE
:10024000EC5F2600CD0720210520110E040602CD0B
:10025000F1BFCDD01FCDFDBCC921CB2DAF7711CCC7
:100260002D011700EDB0C92A806122F15F21E32D35
:100270003AEC5F3D281057AF010000EDB11520FBAF
:1002800021F35FB7ED42E53E83010000EDB10321AC
:10029000B360B7ED42B7ED425E2356ED53ED5FE13B
:1002A0003E85010000EDB10321B360B7ED42B7ED2B
:1002B000425E2356ED53EF5FAF3290612A80614D6D
:1002C0004421B360E55E2356EBB7ED42E1280423F9
:1002D0002318F123237EB7C294013AF9016F3AFA49
:1002E00001673E1577233E2A7722F000C9AF32908E
:1002F000613A8F61FE033004AF328F613AEC5FFEEA
:100300000A2805FE0F2801C9AF328D61C9E5D52144
:10031000F35F197EE60FCB7E2028CB76201DCB6EB7
:100320002012CB66200721B35FC34903C921C35FF5
:10033000C34903C921CC5FC34903C921D35FC34962
:1003400003C921DB5FC34903C95F1D1600197ED1B4
:100350002123601977E1E67F3E38327461C922407B
:1003600004CD6F043A9061B7280921652D11000072
:10037000CDF4243A8461B7280CCD4304217D2D119E
:100380000007CDF4243A8561B7280921832D110790
:1003900007CDF4243A8F61B7280921892D110E0762
:1003A000CDF4243A8661B72809218F2D11000ECD96
:1003B000F4243A8D61B7280921A12D110015CDF43F
:1003C000243A8861B7280921952D11070ECDF42410
:1003D0003A8761B72809219B2D110E0ECDF4243ADE
:1003E0008961B7280921A72D110715CDF4243A8A70
:1003F00061B7280CCD5D0421B32D11001CCDF42470
:100400003A9161B7280921AD2D110E15CDF4243A8A
:100410008E61B7280921B92D11071CCDF4243A9219
:1004200061B7280921BF2D110E1CCDF4243A8B6130
:10043000B7280921C52D110023CDF424CD81202119
:100440000000C9FE012810FE0228063EFF32796135
:10045000C93E04327961C93E02327961C9B7C8FE2A
:100460000228063E60327461C93E10327461C9B719
:10047000C8217D2D3D110600CDFB1F110700CDF4D5
:1004800024C9474554205245414459504C4159458F
:1004900052204F4E45464C4F4F5253454C454354C6
:1004A00020535441525420464C4F4F52FFFFFF01FE
:1004B000310000CD1B02CD0823CD5902AF3290612F
:1004C000ED5BF15FED538061DD21236021B36011AD
:1004D0000000DD7ED0FE8FCA1805D5CD0D03CD8C72
:1004E00021DAEC04D1232313DD2318E6E5110700FC
:1004F000210000CDE01FE60ECDFB1F111E00197D6F
:10050000E177E5110700210000ED5FE606CDFB1F56
:100510007DE123772BC3C804AFDD772EAFCD5E031B
:10052000C32305219D2BED5BF15FCDF424CD81200C
:10053000CDFDBC3E02327761218161CBFECD8120B1
:100540003E3032510521B360DD212360FD2113616E
:100550003E00B7CA3D05DD7ED0B7CAAA1FDD7E00CA
:10056000B7CAAA1FE55E2356CD8025E1DD7ED047C0
:10057000E6E0C2F70578FE0ACA9409FE0BCA9409A0
:10058000FE0CCA9B0ADD7E30B7CA9B053DDD773085
:10059000DD7ED0CB67CA0207C3AA07DD7E60B7C283
:1005A000F005DD7ED0CB672808ED5FE61FCBEF18A6
:1005B0002AF5ED5FE67F47ED5FE67F8047F1FE02BB
:1005C0003816280FFE047838062804E608180CE6CA
:1005D00010180878E608180378E610C608DD7730AA
:1005E0003E19DD7760DD7ED0CB67CA0207C3AA075C
:1005F0003DDD7760C37A06DD7ED0FE41CAAD0CFEDC
:1006000042CAAD0CFE43CAAD0CFE44CAAD0CFE4559
:10061000CA3308FE46CA3308CB6FC2FC0AFE81CA41
:100620000E11FE85CAE90EFE84CA691DFE83CA8DBD
:1006300011FE86CA0F0FFE87CA5211FE8ACA4E0FDC
:10064000FE8BCA7F0FFE8CCAB00FFE8DCAF30FFE61
:100650008ECA2110FE8FCAE51DC3AA1F32F000DD2D
:100660007ED032F400DD7E0032F500DD7E3032F6E1
:1006700000DD7E6032F700C3C41FDDCBD066C23719
:1006800007DD7E60FE09280BFE052834FE01285098
:10069000C30207DD7ED0FE03380ACDE01FFE4030E6
:1006A00003CD3009CDC521281723CBBECBB6ED5FD6
:1006B0001F1F1FE6C0B6772B3E50DD7760C30207D1
:1006C000237EE6C0280BFE80380C280F2B3535180A
:1006D0003135352B182C2B3434182734342B182271
:1006E000237EE6C0280CFE80380E28122B353535C7
:1006F00018103535352B180A2B343434180434349B
:10070000342B112D2CED530E07E55E2356210000EE
:10071000CDF424E1DD7ED0E6F8CA1D07C93A776141
:10072000CB7F2808CD8C21DCAE211808CD8C213060
:1007300003C38B1FC3AA1FDD7ED0FE1420073AD748
:100740002DB7CAAA1FDD7E60FE18CA7607FE0CCA46
:100750009807FD7E00B7C29E0711452CCD05073ACC
:100760007761CB7F2808CD8C21DCAE211805CD8C9C
:10077000213000C3AA1F3A7361DD3430DD3460E6F6
:10078000C3CA7307DD3530DD3560DD7E603E0AFDAE
:100790007700CDAD07C35907CD3009C35907DD3404
:1007A00060FD3500FD7E00C35907C3AA1FE5218007
:1007B000615E2356E1ED5F4FED5FE603B7CADB07ED
:1007C000FE02DAF207CA06087AE63FD60E38DEF6EF
:1007D00080577B77237A772BC31E087BD60EFE1EAD
:1007E00038CB5F7AE63FF640577B77237A772BC387
:1007F0001E087AE63F7AC60EFE3030B1577B77236B
:100800007A772BC31E087BC60EFE88D2AD075F7AAF
:10081000E63FF6C0577B77237A772BC31E08CD5867
:10082000227E9177237E9077E63FFE2A200332CE08
:100830002D2BC9DD7E6047DD7E00B83803DD776093
:10084000DD7E30B7CA51083DDD7730CAFD08C3BE32
:1008500008CD582279B7C2BB0878B7C2BB08CDF51E
:100860001FFEA03803CD3009CD0A0E3A80619330C7
:10087000042812ED444F3A8161E63F923004280C7F
:10088000ED44B93807CDFD0D3819181FCDF50D38D9
:1008900002180823CBFECBF62B181823CBBECBF6C1
:1008A0002B181023CBBECBB62B180823CBFECBB610
:1008B0002B1800CDC5212803C3F508CDC90BDD7E5B
:1008C000D0FE81CA18113A7761B72811CB7F28086A
:1008D000CD8C21DC4D0E280DCD8C211808CD8C211E
:1008E0003003C38B1F3A8D61B7CAAA1F115D2CCD8F
:1008F0000507C3AA1F3E12DD7730C3BE08237E2B37
:10090000E6C0280CFE80381028147ED6077718160B
:10091000237ED607772B180E7EC607771808237E0E
:10092000C607772B18003AD32D3C32D32DC3BE080F
:10093000E521F35FAF010000EDB1032BDD7ED0FEBA
:10094000042823DD7ED0FE13281CFE142818FE4642
:100950002814FE412814FE422810FE43280CFE44B1
:100960002808360A1806360B1802360C1130001902
:10097000360111F000193600E17E5F237E572BE52A
:10098000210000B7ED42B7ED4201B360097B772348
:100990007A77E1C9FD7E00FE01CADD09FE02CA06C2
:1009A0000ACD582278B7C2880A79B7C2880ACDC55D
:1009B00021C2330A237E2BE6C0280AFE80380C2889
:1009C0000E353518102335352B180A343418062304
:1009D00034342B18003E01FD7700C3400A237E2BE0
:1009E000E6C0280AFE80380C280E3535181023354D
:1009F000352B180A343418062334342B18003E02E1
:100A0000FD7700C3400A237E2BE6C0280BFE80380A
:100A10000E28113535351813233535352B180C3480
:100A200034341807233434342B18003E00FD77008B
:100A3000C3400ADD7ED0FE0BE5CC9322E1C3880AD9
:100A4000CD8C2130333A8161E6C017171747237EDA
:100A50002BE6C01717173C3CE6034FC53A7761CB2E
:100A60007F2009C179A8CA810AC38B1FC1793CE6DE
:100A700003A8CA810AC38B1F11752CCD0507C3AA11
:100A80001F3ACC2D3C32CC2DAFDD77D0DD7700FD89
:100A9000770036002336002BC3AA1FCD582278B723
:100AA000C2880A79B7C2880ACDC521C2880A237EC6
:100AB0002BE6C02823FE8038162809353535353514
:100AC0003535181F23343434343434342B1814346B
:100AD000343434343434180B233535353535353525
:100AE0002B18003A9161FE023006CD8C21DC8B1F61
:100AF000114D2DCD0507C3AA1FC3AA1FDD7E604778
:100B0000DD7E00B83803DD7760DD7ED0FE23280B64
:100B1000FE272807DD7E30B7CAE20BCD582278B712
:100B2000C2C50B79B7C2C50BCDE60DCA6A0BCDF5B0
:100B30000DCA790BCDFD0DCA9F0BCD120ECDC5216F
:100B4000CAC50BCD200ECDC521C24F0BC3C50BCDE1
:100B5000120ECDC521CAC50BCD120ECD120ECDC5BC
:100B600021CAC50BCD200EC3C50B237EF6C0772B43
:100B7000CDC521CAC50BC34F0BCDFD0D380823CB06
:100B8000FECBB62B180623CBBECBB62BCDC521CAC8
:100B9000C50BDD7ED0FE272003C3E20BC34F0BCD78
:100BA000F50D380823CBBECBF62B180623CBFECB96
:100BB000F62BCDC521CAC50BDD7ED0FE272003C391
:100BC000E20BC34F0B11E20BD5237E2BE6C02808A6
:100BD000FE803808280835C923352BC934C9233489
:100BE0002BC9FD7E30EE01E601FD7730B7280511F7
:100BF0008D2C180311A52CCD0507E52AB36022D151
:100C00002DE13A7761B72814CB7F2808CD8C21DC01
:100C10002A0E1810CD8C21DC420E1808CD8C213004
:100C200003C38B1FDD7E30EEFFDD7730C3AA1FCDFF
:100C30000A0EF532A00C7B329E0CF1E6C02810FEA5
:100C4000023814281C7BD607FE1EDAAA0C181C7A60
:100C5000D607DAAA0C18147BC607FE88D2AA0C188D
:100C60000A7AC607FE2BD2AA0C1800CD120ECDC5EB
:100C700021CA9D0CCD200ECDC521CA9D0CCD200EC4
:100C8000CDC521CA9D0CCD120ECD120E237EE6C01D
:100C9000473AA00CE63FB032A00C2B18CE1E00162F
:100CA000007B77237A772BC3C50BC34F0BDD7ED038
:100CB000FE4420083AD82DFE04DAAA1FDD7E6047E4
:100CC000DD7E00B83803DD7760FD7E30FE03C2694B
:100CD0000DCD582278B7C2B20D79B7C2B20DFD7EE4
:100CE00000FE05CAD40DFD3400CDE60DCA100DCDB1
:100CF000F50DCA1F0DCDFD0DCA440DCD120ECDC58B
:100D000021CAB20DCD200ECDC521CAB20DC3B90D79
:100D1000237EF6C0772BCDC521CAB20DC3B90DCD48
:100D2000FD0D380823CBFECBB62B180623CBBECB4C
:100D3000B62BCDC521CAB20DCD9322CDC521CAB2E5
:100D40000DC3B90DCDF50D380823CBBECBF62B184E
:100D50000623CBFECBF62BCDC521CAB20DCD9322F7
:100D6000CDC521CAB20DC3B90DFD7E303CE603FDF1
:100D70007730FE012809FE03280511BD2C18031148
:100D8000D52CCD05073A7761B72814CB7F2808CD3D
:100D90008C21DC640E1810CD8C21DC420E1808CD9D
:100DA0008C213003C38B1FDD7E30EEFFDD7730C337
:100DB000AA1F11690DD5C3C90BCD120ECDC521CA0D
:100DC000B20DCD120ECD120ECDC521CAB20DCD2061
:100DD0000EC3B20DAFFD7700CDC5212803CD120E95
:100DE000CD3009C3690DCD0A0EE52A80617CE63F4E
:100DF00067ED52E1C9CD0A0E3A806193C9CD0A0E62
:100E00007AE63F3A8161E63F92C95E237EE63F572C
:100E10002BC9237EE6C0C640477EE63FB0772BC98C
:100E2000CD120ECD120ECD120EC93A8661FE04CA45
:100E3000420EFE03DD7E0020033D28013DDD7700EC
:100E400028793A74613D327461CA8B1FC93A866150
:100E5000FE04C8FE02DD7E0020033D28013DDD7753
:100E600000286BC93A8661FE02DA420EDD7ED0FEB2
:100E7000442836C32A0E3A8661FE03DA8B1F3A886D
:100E800061FE02DA8B1F3A8761FE02DA8B1F3A8914
:100E900061FE02DA8B1F3A8A61FE01DA8B1F3A8B00
:100EA00061FE03DA8B1FC32A0E3A9261B7CA8B1F09
:100EB000CDAE213E0132D92DC3AA1FDD7E6047AFE2
:100EC000DD77603A74618030023EFF3274613E012A
:100ED00032D72DAFDD7700DD7730DD7760FD77002D
:100EE000E55E2356CD8025E1C93A9061B7280BAF66
:100EF000CD5E03AFDD7700C3AA1FE5CD8C21E130C5
:100F0000053E0132906111652DCD0507C3AA1F3A38
:100F10008F61FE042803C3601DDD7E30B7C2AA1FA7
:100F2000E5CD8C21E1D2601D3A8E61B720073E04E9
:100F300032866118053E03328661AF328E61328F90
:100F4000613E04CD5E033E01DD7730C3AA1F3AD572
:100F50002DB7CAAA1FE5114FA37323721156A32AF6
:100F60008061B7ED5221D62D2002CBC6CB46CA7B7D
:100F70000FE111352DCD0507C3AA1FE1C3AA1F3A02
:100F8000D62DB7CAAA1FE5114F8773237211568752
:100F90002A8061B7ED5221D72D2002CBCECB4ECA8D
:100FA000AC0FE111352DCD0507C3AA1FE1C3AA1F60
:100FB0003AD82DB7CAAA1FE5114F957323722A801C
:100FC00061B7ED5221D92D2002CBD6CB56CAEF0FF7
:100FD000E111352DCD0507AF328B61CD5E03E511F3
:100FE00056952A8061B7ED52CA5F10E1C3AA1FE18E
:100FF000C3AA1F16151E877323722B3AD52DB72847
:101000000CC3AA1F111D2DCD0507C3AA1FCD8C210E
:1010100030F23A7761CB7FC28B1F3E0132D52D185B
:10102000E316151E1E7323722B3AD82DB7C2AA1FC2
:101030003AD72DB7201211752CCD0507C3AA1F1161
:10104000232DCD0507C3AA1FCD8C2130F23A77613D
:10105000CB7FC28B1F3E0132D82D18A8C3AA1FE137
:1010600011489521232DCDF424CD8120CDD01FCD45
:10107000D01FCDD01FCDD01FCDFDBCCD4D20110434
:1010800000061221BC10CDF1BF23110501060FCDC2
:10109000F1BF23110B020603CDF1BF23110203069A
:1010A00015CDF1BF231108040609CDF1BF231108A6
:1010B000050608CDF1BFCDFDBCC3C41F434F4E474D
:1010C00052415455524154494F4E532021214E4FC5
:1010D0005720594F552053415645204B49414E44C6
:1010E00054484520414456454E5455524520495395
:1010F000204F5645525448414E4B20594F55742E5F
:101100007320736F6674542E5320534F46543AD94C
:101110002DB7CAAA1FC333083A7761B72811CB7F0E
:101120002808CD8C21DC760E280DCD8C211808CD19
:101130008C213003C38B1FFD7E00EE01E601FD779D
:1011400000B7280511ED2C180311052DCD0507C397
:10115000AA1F11752C3ACF2DB7200911752CCD057A
:1011600007C3AA1F111D2DCD05073A7761CB7F2834
:101170000BCD8C21DC8711DCAE211808CD8C213001
:1011800003C38B1FC3AA1F3E0132D52DC9ED5BF1EE
:101190005F7B777A23772BDD7E30B73AEC5F2012C6
:1011A0003DD9875F160021BD11195E2356EB22F051
:1011B00000E93DD9875F160021351218ECAD12DE2B
:1011C000120A133D1345137313B313E31321146071
:1011D000148B14CE14F71457155F159615D71504F4
:1011E0001662166A16D416D416D416D8160D171110
:1011F000178517B617BA17EA1726182A185F18ABFB
:1012000018AF18E41813195C1994199419941994C7
:10121000199819EC192C1A6D1AE11A0D1B811BCBA8
:101220001B2B1C671CAD1CAD1CAD1CAD1CB11CEAFE
:101230001C5C1D5C1DBC12ED121A13411356139851
:1012400013C31300143F147014B314DC1435155B6E
:10125000157B15BB15E81534166616B316D416D4CF
:1012600016D416F2160D174D179517B617CA170A8A
:1012700018261844187318AB18C318F8182A1979C7
:10128000199419941994199419CB19111A511AC057
:101290001AF11A601B9B1B0A1C4C1C7A1CAD1CAD5E
:1012A0001CAD1CAD1CCF1C381D5C1D5C1DD93ACB80
:1012B0002DFE03DAAA1FDD7730C3AA1FD93A846155
:1012C000B7C2AA1FE5CD8C21E1D2601D3E01328458
:1012D000613E023279613E01CD5E03C3AA1FD93A55
:1012E000CB2DFE02DAAA1FDD7730C3AA1FD93A85BB
:1012F00061B7C2AA1FE5CD8C21E1D2601D3E01324B
:1013000085613E02CD5E03C3AA1FD93A2360B7C2EE
:10131000AA1F3E01DD7730C3AA1FD93A8F61FE01B3
:10132000CAAA1FE5CD8C21E1D2601D3E01328F613A
:101330003E03CD5E033E40327461C3AA1FD9C3AAE7
:101340001FD9C3AA1FD93ACC2DFE04DAAA1F3E0129
:10135000DD7730C3AA1FD93A8661B7C2AA1FE5CD8F
:101360008C21E1D2601D3E013286613E04CD5E03D8
:10137000C3AA1FD93A8161E63FC281133E01DD77DE
:1013800060DD7E60B7CAAA1F3A8161E63FFE01C2F6
:10139000AA1FDD7730C3AA1FD93A8D61B7C2AA1F31
:1013A000CD8C21D2601D3E01328D613E07CD5E03A2
:1013B000C3AA1FD93ACD2DB7CAAA1F3E01DD773087
:1013C000C3AA1FD93A8461B7C2AA1FCD8C21D260AB
:1013D0001D3E023284613E043279613E01CD5E03DE
:1013E000C3AA1FD9CD582278FE01CAAA1F79B7C255
:1013F000AA1F3A7361CB6FCAAA1FDD7730C3AA1F39
:10140000D93A8F61FE01CAAA1FCD8C21D2601D3E40
:1014100001328F613E403274613E03CD5E03C3AA48
:101420001FD9ED5B80617AE63FC2AA1F7BFE56CAD8
:101430003714FE5DC2AA1F3E01DD7730C3AA1FD953
:101440003A8F61FE02CAAA1FCD8C21D2601D3E02D6
:10145000328F613E103274613E03CD5E03C3AA1F1A
:10146000D93ACC2DB7CAAA1F3E01DD7730C3AA1FD7
:10147000D93A8861B7C2AA1FCD8C21D2601D3E0126
:101480003288613E05CD5E03C3AA1FD93A8161E669
:101490003FFE2A20053E01DD7760DD7E60B7CAAAE7
:1014A0001F3A8161E63FFE29C2AA1F3E01DD773067
:1014B000C3AA1FD93A8D61B7C2AA1FCD8C21D260B1
:1014C0001D3E01328D613E07CD5E03C3AA1FD93A8E
:1014D000CE2DB7CAAA1FDD7730C3AA1FD93A8761BC
:1014E000B7C2AA1FCD8C21D2601D3E013287613E5A
:1014F00006CD5E03C3AA1FD9E52123607EB7C231A2
:1015000015237EB7C23115237EB7C23115237EB7AE
:10151000C23115237EB7C23115237EB7C2311523E0
:101520007EB7C23115E13E0132D02DDD7730C3AA3E
:101530001FE1C3AA1FD93ACF2DB7CAAA1F3A8961A2
:10154000B7C2AA1FCD8C21D2601D3E013289613EF7
:1015500008CD5E03C3AA1FD9C3AA1FD9C3AA1FD926
:10156000E521D12DCDE60DE1C2AA1F3A7761E67FD4
:10157000CAAA1F3E01DD7730C3AA1FD93A9161B7CD
:10158000C2AA1FCD8C21D2601D3E013291613E095D
:10159000CD5E03C3AA1FD93A8061FE1E2004DDCBB5
:1015A00060C63A8061FE872004DDCB60CEDD7E60C0
:1015B000FE03C2AA1FDD7730C3AA1FD93A8D61FE90
:1015C00002CAAA1FCD8C21D2601D3E02328D613E1F
:1015D00007CD5E03C3AA1FD93AD32DFE05DAAA1F91
:1015E0003E01DD7730C3AA1FD93A8F61FE03CAAA34
:1015F0001FCD8C21D2601D3E03328F613E03CD5E34
:1016000003C3AA1FD93A8061FE1E2821FE87281D28
:101610003A8161E63F2816FE2A2812DD3460DD7E1D
:1016200060B7C2AA1F3E01DD7730C3AA1FAFDD77C6
:1016300060C3AA1FD93A8661FE02CAAA1F3A8F6107
:10164000FE03C2601DCD8C21D2601D3E0232866138
:10165000AF328F61110E07CD80253E04CD5E03C3EE
:10166000AA1FD9C3AA1FD9C3AA1FD9E52123607E07
:10167000B7CAAF16237EB7CAAF16237EB7CAAF1656
:10168000237EB7CAAF16237EB7CAAF16237EB7CA6A
:10169000AF16237EB7CAAF16237EB7CAAF1623E1B3
:1016A0003A9061B7CAAA1F3E01DD7730C3AA1FE195
:1016B000C3AA1FD93A8F61FE01CAAA1FCD8C21D2BD
:1016C000601D3E01328F613E403274613E03CD5E4B
:1016D00003C3AA1FD9C3AA1FD9E521F15FCDE60D27
:1016E000E1C2AA1F3A7761CB7FCAAA1FDD7730C358
:1016F000AA1FD93A8E61B7C2AA1FCD8C21D2601D14
:101700003E01328E613E0BCD5E03C3AA1FD9C3AA30
:101710001FD9E506002123607EB7C21E1704237E71
:10172000B7C2251704237EB7C22C1704E178FE0147
:10173000DAAA1FCA3E17FE03DA3E17C3AA1F3A9061
:1017400061B7CAAA1F3E01DD7730C3AA1FD93A8804
:1017500061FE02CAAA1FFE03CAAA1FCD8C21D26055
:101760001D3A8E61B720073E0332886118053E029C
:10177000328861AF328E6111071CCD80253E05CDC8
:101780005E03C3AA1FD93A2360B7C2AA1F3E01DD78
:101790007730C3AA1FD93A9161FE01C2AA1FFE0287
:1017A000CAAA1FCD8C21D2601D3E023291613E0932
:1017B000CD5E03C3AA1FD9C3AA1FD93ACD2DB7CA7C
:1017C000AA1F3E01DD7730C3AA1FD93A8461B7C290
:1017D000AA1FCD8C21D2601D3E033284613EFF32B0
:1017E00079613E01CD5E03C3AA1FD9ED5B80617AAA
:1017F000E607FE07C2AA1F7BFE79CA0218FE2CC2AA
:10180000AA1F3E01DD7730C3AA1FD93A8F61FE03BC
:10181000CAAA1FCD8C21D2601D3E03328F613E03C8
:10182000CD5E03C3AA1FD9C3AA1FD93A7761CB7F64
:10183000CAAA1FDD3460DD7E60FE02DAAA1FDD77F2
:1018400030C3AA1FD93A8E61B7C2AA1FCD8C21D24C
:10185000601D3E01328E613E0BCD5E03C3AA1FD9CF
:10186000E521B360CDE60DE1C2AA1F3E01DD773070
:10187000C3AA1FD93A8961FE01C2AA1FFE02CAAAE1
:101880001FCD8C21D2601D3A8E61B720073E0332F6
:10189000896118053E02328961AF328E6111071CE1
:1018A000CD80253E08CD5E03C3AA1FD9C3AA1FD988
:1018B000E521B360CDE60DE1C2AA1F3E01DD773020
:1018C000C3AA1FD93A8F61FE02CAAA1FCD8C21D2AA
:1018D000601D3E02328F613E103274613E03CD5E68
:1018E00003C3AA1FD9E521B360CDE60DE1C2AA1F4B
:1018F0003E01DD7730C3AA1FD93A8E61B7C2AA1F55
:10190000CD8C21D2601D3E01328E613E0BCD5E0337
:10191000C3AA1FD93A2360B7C2AA1F3A2460B7C22C
:10192000AA1F3E01DD7730C3AA1FD93A8A61B7C228
:10193000AA1FCD8C21D2601D3A8E61B720073E02CE
:10194000328A6118053E01328A61AF328E61110719
:101950001CCD80253E0ACD5E03C3AA1FD93ACC2DEB
:10196000B7CAAA1F3A7761CB7FCA7219DD7730C335
:10197000AA1FAF32CC2DC3AA1FD93A8B61B7C2AA16
:101980001FCD8C21D2601D3E01328B613E0DCD5E9C
:1019900003C3AA1FD9C3AA1FD93A2360B7C2AA1F7B
:1019A0003A2460B7C2AA1F3A2560B7C2AA1F3A26D6
:1019B00060B7C2AA1F3A2760B7C2AA1F3A2860B709
:1019C000C2AA1F3E01DD7730C3AA1FD93A8F61FE3C
:1019D00002CAAA1FCD8C21D2601D3E02328F613E09
:1019E000103274613E03CD5E03C3AA1FD93A23604F
:1019F000B7C2AA1F3A2460B7C2AA1F3A2560B7C26D
:101A0000AA1F3A2660B7C2AA1F3E01DD7730C3AADB
:101A10001FD93A8E61B7C2AA1FCD8C21D2601D3E5C
:101A200001328E613E0BCD5E03C3AA1FD93A2360FB
:101A3000B7C2AA1F3A2460B7C2AA1F3A2560B7C22C
:101A4000AA1F3A2660B7C2AA1F3E01DD7730C3AA9B
:101A50001FD93A8F61FE04CAAA1FCD8C21D2601D06
:101A60003E04328F613E03CD5E03C3AA1FD9E52633
:101A7000002E1EED5B80617AE63F57D5B7ED522010
:101A800004DDCB60C6262A2E1ED1D5B7ED52200428
:101A9000DDCB60CE262A2E87D1D5B7ED522004DDCE
:101AA000CB60D626002E87D1B7ED522004DDCB6067
:101AB000DEE1DD7E60FE0FC2AA1FDD7730C3AA1F04
:101AC000D93A9161FE02C2AA1FFE03CAAA1FCD8C99
:101AD00021D2601D3E033291613E09CD5E03C3AA4F
:101AE0001FD93A2360B7C2AA1F3E01DD7730C3AACF
:101AF0001FD93A8F61FE03CAAA1FCD8C21D2601D67
:101B00003E03328F613E03CD5E03C3AA1FD9E52693
:101B1000002E1EED5B80617AE63F57D5B7ED52206F
:101B200004DDCB60C6262A2E1ED1D5B7ED52200487
:101B3000DDCB60CE262A2E87D1D5B7ED522004DD2D
:101B4000CB60D626002E87D1B7ED522004DDCB60C6
:101B5000DEE1DD7E60FE0FC2AA1FDD7730C3AA1F63
:101B6000D93A8B61FE01C2AA1FFE02CAAA1FCD8C00
:101B700021D2601D3E02328B613E0DCD5E03C3AAB1
:101B80001FD9E52123607EB7C2971BE13E0132D009
:101B90002DDD7730C3AA1FE1C3AA1FD93ACF2DB7D5
:101BA000CAAA1F3A8F61FE02CAAA1F3A8F61FE03BA
:101BB000C2601DCD8C21D2601D3E02328F613E106D
:101BC0003274613E03CD5E03C3AA1FD906003A8179
:101BD00061E63FF5B82004DDCB60C6062AF1B820E7
:101BE00004DDCB60CE061E3A8061F5B82004DDCB63
:101BF00060D60687F1B82004DDCB60DEDD7E60FEB6
:101C00000FC2AA1FDD7730C3AA1FD93A8F61FE0128
:101C1000CAAA1FCD8C21D2601D3E01328F613E4089
:101C20003274613E03CD5E03C3AA1FD93A7361E6E5
:101C3000C3B72811DD3460DD7E60FE7FC2AA1FDDE0
:101C40007730C3AA1FAFDD7760C3AA1FD93A8E6170
:101C5000B7C2AA1FCD8C21D2601D3E01328E613EDB
:101C60000BCD5E03C3AA1FD918083AD42DFE04DA9F
:101C7000AA1F3E01DD7730C3AA1FD93A8761FE0152
:101C8000C2AA1FCD8C21D2601D3A8E61B720073EBB
:101C90000332876118053E02328761AF328E6111CF
:101CA000071CCD80253E06CD5E03C3AA1FD9C3AA5B
:101CB0001FD93AD52DB7CAAA1F3A2360B7C2AA1FA7
:101CC0003A2460B7C2AA1F3E01DD7730C3AA1FD9EC
:101CD0003A9261B7C2AA1FCD8C21D2601D3E01325B
:101CE00092613E0CCD5E03C3AA1FD9E5114FA32A12
:101CF0008061B7ED5221D62D2002CBC6CB46CA3427
:101D00001D114F872A8061B7ED5221D62D2002CBBD
:101D1000CECB4ECA341D114F952A8061B7ED5221AA
:101D2000D62D2002CBD6CB56CA341DE13E01DD773D
:101D300030C3AA1FE1C3AA1FD93A8B61FE02C2AA0F
:101D40001F3A8B61FE03CAAA1FCD8C21D2601D3EB3
:101D500003328B613E0DCD5E03C3AA1FD9C3AA1FF8
:101D600011772DCD0507C3AA1F3A9061B72002183D
:101D70001211712DCD0507CD8C21CDE60DCA9C1D0C
:101D8000C3AA1FCD8C21300B3AD02DB720053E01C0
:101D900032CF2D116B2DCD0507C3AA1FAF32906135
:101DA000CD5E03CD8120110601060B21D01DCDF1A2
:101DB000BF110802060A21DB1DCDF1BFCDD01FCD1A
:101DC000FDBC21EC5F347E2BBEDA850177C3850133
:101DD000464C4F4F5220434C4541524E455854209B
:101DE000464C4F4F52E53A80615F3A816157CD8052
:101DF00025CDA720327361083A7761B7C2541F0816
:101E0000CB6FC2F31ECD2A1F219D2B22C51E083A7F
:101E10008561B7200B3A7A61EEFF327A61CAC41E3F
:101E200008CB47200FCB4F202DCB77204CCB7F20EA
:101E30006CC3C41E3A8161E63FCA431ED607DAE08E
:101E40001E20F93EC0218161B6772BCDC521B7C2D6
:101E5000C41E35C3BD1E3A8161E63FCA651ED60762
:101E6000DAE01E20F93E3F218161A677CBF62BCD2B
:101E7000C521B7C2C41E3418443A8061D61ECA8830
:101E80001ED607DAE01E20F93E3F218161A677CBFE
:101E9000FE2BCDC521B7C2C41E233418203A806161
:101EA000D61ECAAC1ED607DAE01E20F93E3F2181BD
:101EB00061A6772BCDC521B7C2C41E23352176611B
:101EC0003EFFAE77219D2B3A76613C111800CDFB89
:101ED0001F3A80615F3A816157CDF424E1C3AA1FA4
:101EE0003A8161E6C0CAAC1EFE80DA651ECA881E51
:101EF000C3341E08B7C21F1F3A8861FE01380D287F
:101F00000BFE033803AF18063E0418023E0A327770
:101F100061CD7B2211CD2BED53C51E08C30E1E11C2
:101F2000FD2BED53C51E08C30E1E083A7761470806
:101F3000CB78C808E13A8861FE01380D280BFE0312
:101F40003803AF18063E0418023E0AF68032776165
:101F500008C30E1EFE80CAFF1DE680C2731F2177D4
:101F6000617E3D7711CD2BED53C51EC2871FCBFE81
:101F7000C3871F2177617E3D77E67F11CD2BED531F
:101F8000C51EC2871FCBBE08C30E1ECD8120219F58
:101F90001F110000060BCDF1BFCDFDBCC3B0046224
:101FA00065656E206B696C6C65643A51053D325114
:101FB000052323DD23FD23D9CDA720CB57C2C41F82
:101FC000D9C35005310000C93E3218063E2518021B
:101FD0003EFF01000003000000000000A8C818F543
:101FE000E5D5210000545D29291911475D1922E327
:101FF0001F7CD1E1C9CDE01FE6C0C9B7C8193D209B
:10200000FCC90000000000110220011027CD412072
:1020100001E803CD4120016400CD4120010A00CD3B
:1020200041207D1206051102201AFE002802180820
:102030001310F606011106201A0E3081121310F843
:10204000C9AFED4238033C18F9091213C9F5D5E5BB
:10205000C53E0021812611822677015F03EDB0CDB8
:102060008120C1E1D1F1C9F5D5E5C521812636FF31
:10207000118226015F03EDB0CD8120D9C1E1D1F1FC
:10208000C93E06110000218126D5F50690CDD0BFAE
:1020900023F1D1143D20F2C90E06C5D5CDD0BFD154
:1020A0001423C10D20F4C9F3AFD3113E08D311CDD1
:1020B000AD8ADB10E6E047AFD3113E10D311CDADB2
:1020C0008ADB10E60FB0FBC97E4FD61ECAE420D6CD
:1020D00007CAE42030F9FEFD3804ED441804C607B1
:1020E000ED448177237E2B4FE63FC8D607C830FBEF
:1020F000FEFD3804ED441804C607ED448123772B18
:10210000C95E23562B3A8161E6C0CA3321FE80DACC
:102110005121CA6E213A8161E63F92FE0338052FB4
:102120003CFE03D03A806193FE06D82F3CFE03DAD2
:102130008B1FC93A806193FE0338052F3CFE03D004
:102140003A8161E63F92FE03D82F3CFE03DA8B1FF3
:10215000C93A8161E63F92FE0338052F3CFE03C970
:102160003A806193FE03DA8B1F2F3CFE06C93A804A
:102170006193FE0338052F3CFE03D03A8161E63FB0
:1021800092FE03DA8B1FD82F3CFE06C95E237E2BFE
:10219000E63F573A806193FE0338052F3CFE03D09B
:1021A0003A8161E63F92FE03D82F3CFE03C9E55E0B
:1021B0002356CD802521CB2D7E3C7721D82D34E1AF
:1021C000AFDD7700C9E5CDCB21E1C9E55E23562B14
:1021D000EB3E3FA4010000280804D607DA55222070
:1021E000F87DD61E28080CD607DA552220F87CE6A2
:1021F000C0CA3F22FE80DA2822CA1222214F245967
:10220000160019111100041910FD22A4227EE68087
:10221000E1C921D02359160019111000041910FD2D
:1022200022A4227EE680E1C9214F245916001923F9
:10223000111100041910FD22A4227EE680E1C921BB
:10224000C02359160019111000041910FD22A422F0
:102250007EE680E1C9E1AFC90100007E5F237EE632
:102260003F572B7BD61E2807D607280330FA4F7A14
:10227000B72807D607280330FA47C9218061CDC5A2
:1022800021C82179615E1C1DC81D73F5CCE022F1C7
:102290002180610832EB2222B522CDC521DAEA2263
:1022A000CAEA222100003AD42D3C32D42D4E0CCA69
:1022B000E022360021000022ED225E23567AE6C09D
:1022C0002818FE80380E28061DCD8025181C14CD38
:1022D000802518161CCD8025181015CD8025180ACC
:1022E000DD7ED0FE8F2003CDF1223E0021000008CC
:1022F000C9AF327961328461AF328461110007CD98
:1023000080253E0132CD2DC9CD4D202197303AECAC
:102310005F3D11C900CDFB1F11E023016000EDB04E
:102320001160243E0713F5010F00EDB01313F13DCA
:1023300020F4111E06DD21E023FD216024DD7E0056
:10234000E6802808D521E824CDF424D1DD23FD7EC4
:1023500000E680280FD521EE241515151515151D3D
:10236000CDF424D1FD233E07835FFE8EC23D233E84
:10237000078257FE3728071E1EFD23C33D230E028A
:102380003E1B328A23160006061E00C5D521AC046A
:102390000603CDF624D1C13E08825710EC3E8D32A3
:1023A0008A230D20E00E0F3E2432B12316060606C6
:1023B0001E00C5D521AF040601CDF624D1C13E07CC
:1023C000825710EC3AB123C60732B1230D20DDC984
:1023D000FFFFFFFFFFFFFFFFFFFFFFFFFFFFFFFF0D
:10244000FFFFFFFFFFFFFFFFFFFFFFFFFFFFFFFF9C
:10245000FFFFFFFFFFFFFFFFFFFFFFFFFFFFFFFF8C
:01246000FF7C
:02247000FFFF6C
:02248100FFFF5B
:02249200FFFF4A
:0224A300FFFF39
:0224B400FFFF28
:0224C500FFFF17
:0224D600FFFF06
:1024E700FF0101010101013F000000000006067A1B
:1024F700E6C0281FFE80381428093E12856F301366
:102507002418103E0C856F300A2418073E06856F85
:102517003001247B3241257AE63F160014D6083075
:10252700FB15C608324A254F3E08913270257AE5D9
:10253700218126119000CDFB1F1E00160019EBE12B
:10254700E5C50E007E0879B7280708CB270D20FBC5
:1025570008084F1AB112231310E8EB11900019C1A4
:102567007D903001256FEBE10E007ECB3F0D20FB08
:102577004F1AB112231310F0C921EB2506067B323F
:10258700AC257AE63F160014D60830FB15C608328C
:10259700B5254F3E089132DB257AE521812611903A
:1025A70000CDFB1F1E00160019EBE1E5C50E007EEE
:1025B7000879B728070837170D20FB08084F1AA115
:1025C70012231310E8EB11900019C17D90300125FB
:1025D7006FEBE10E007E371F0D20FB4F1AA1122370
:0A25E7001310F0C9C0C0C0C0C0C08E
:102A71000000000000000000000000000000000055
:102A810000008060800000C0300C0830C0C03008F9
:102A910010E0000000000000000000000000000045
:102AA100000000000000000000000080C000008065
:102AB100601018060100010E030000000000000173
:102AC100000000030C3040800080E00000000000A6
:102AD10000000000000000000000C0300E014F6641
:102AE100F1E0F05858402080E0F880F0C0E0F0D8E4
:102AF10068A9C3428286840C1879F6E1C18638C080
:102B010000000000000000804020180601000000C5
:102B1100000F3F7FFEF8F8F0FEFFFFFFFFFFFFFF12
:102B2100FFFFFFFFFFFFFF7E7E7D7D787D3F1F0F53
:102B31000000030C7080000000FF00000000000096
:102B410000F80808F000FC2E6FD7077F8000F8001E
:102B5100F0504C4EFF07F70F4E4CD400F050484850
:102B6100F80000000000000F30C0784740404040AE
:102B7100444444454545444445444445444445450D
:102B810045444544444445444445454545444544FC
:102B910044444544444440404040407F000C3F1F72
:102BA1000C0000003F3F0C00000C1F370C00000C14
:102BB1003F3F0000000C1F3F0C0000201F1F2C0096
:102BC100000C3F170C00002C1F1F2000000C3F1FA2
:102BD1000C08080C3F3F0C00080C1F370C00000CC0
:102BE1003F3F0C08000C1F3F0C08082C1F1F2C0036
:102BF100080C3F170C00002C1F1F2C081E0C3F1F38
:102C01000407000E3F3F080838041F3F0C1E080848
:102C11003F3F0E001E0C1F3F0407002E1F1F2808F8
:102C210038043F1F0C1E08281F1F2E0000181C1CF3
:102C3100180000181C1C1800000C1A1E0C00000CB7
:102C41001A1E0C00032E3F3F2E0300203F3F2E187B
:102C5100182E3F3F2E18182E3F3F2000030E1F1F36
:102C61000E0310181E1F0F1A180E1F1F0E181A0F11
:102C71001F1E18100000181800000000181800008E
:102C8100000018180000000018180000000C1F3F79
:102C9100040700201F1F280838043F1F0C000828C4
:102CA1001F1F2000000C3F1F040700003F3F0808C2
:102CB10038041F3F0C0008083F3F0000063E3F1F3D
:102CC1001E060E3D3C3C3A0E061E1B373E060E3AD2
:102CD1003C3C3D0E061E1F3F3E062E3D1C1C3A2E5F
:102CE100063E3B171E062E3A1C1C3D2E082D1E1EAD
:102CF1000D08241C1E1B1C2C080D1A162D082C1C3B
:102D01001B1E1C24080D1E1E2D08043C1E1B3C0C02
:102D1100082D1A160D080C3C1B1E3C0408362D2DDF
:102D21003608000E3B3B0E00000E3B3B0E00000E32
:102D31003B3B0E0000203D3D200000203D3D20009A
:102D410000203D3D200000203D3D20003F3F3F3F12
:102D51003F3F3F3F3F3F3F3F3F3F3F3F3F3F3F3F82
:102D61003F3F3F3F20283A0D02003E29293D293EA1
:102D71003E3F3F3F3F3E1C161A161E0E3D0E070BEF
:102D8100112120303E3E140A30282727283003071E
:102D91002E3C182C0506070E1A3C010F3A2E3A0F4D
:102DA1000020203A20201F33272D391F0C323111EA
:102DB1000B041D263232261D30281C322A3C0D0AF6
:102DC1000D1F38300303040810200000000000002C
:102DD10000000000000000000000000000000000F2
:102DE100000001010101010101018384858F0001BE
:102DF100010101010202028384858F002121010169
:102E010001018384858F0002020202020211838480
:102E1100858F000101010111111111118384858F29
:102E21000011111122228384858F000303032121C4
:102E3100218384858F000202020202111111118384
:102E410084858F0013111111458384858F0003033D
:102E5100030312128384858F0001010111111111E5
:102E6100118384858F0002021313458384858F00AB
:102E7100111104040404048384858F0003030303F4
:102E810013468384858F0021222204044183848593
:102E91008F001111111111238384858F00040413F4
:102EA1001345458384858F00020202111111468367
:102EB10084858F000303131313418384858F0013CB
:102EC100131346222222228384858F004623231155
:102ED10011118384858F00010101010111114183C9
:102EE10084858F00131313040404048384858F00E5
:102EF1001111111145458384858F000303030313C9
:102F0100228384858F001313131324418384858FB7
:102F11000021212123238384858F00050505462275
:102F21008384858F00020202020202464683848561
:102F31008F00111122222424418384858F000404EF
:102F410004131313138384858F00050505051212DD
:102F5100418384858F004203031145468384858F15
:102F6100001323238384858F002205051313232354
:102F71008384858F002411111111428384858F0070
:102F8100464624242424248384858F00131313426A
:102F91000606060606068384858F000404040411D0
:102FA10011262606068384858F00111124242424EA
:102FB1008384858F001313131341050505838485CD
:102FC1008F004646422424242424248384858F00B0
:102FD1000102030405068384858F00111113112555
:102FE100258384858F0021222324838485868F0075
:102FF100060646462323438384858F00242121210D
:103001008384858F00050505050546464183848532
:103011008F001313132424242424248384858F00F4
:1030210004040411112424438384858F00030311B4
:10303100112122238384858F000505131313454233
:10304100438384858F0026262424238384858F004F
:10305100062121218384858F001313131313132653
:1030610026268384858F00132626262626268384FA
:10307100858F0024878384858F002641242424831F
:1030810084858F002714141414448184858F008A49
:103091008B8C8D8E8F0000008080800000000000EE
:1030A100008000800000000000800080008000801F
:1030B100800080800080800080800000800000000F
:1030C10000008000008000008080808000800080FF
:1030D100000000800000000080808080008080006F
:1030E10000800080008080008000008000008080DF
:1030F10000808080008080000000000080008080CF
:10310100000000008000800000808000800000003E
:1031110080008000808000808000008080808000AE
:10312100808000808000000080808000008080001E
:10313100800080000000800080008080808080000E
:10314100800000800000000000008000008000007E
:1031510000800080008080000000000080000000EE
:1031610080808000808080008080808080000000DE
:1031710000800000000000800000808080808000CE
:1031810000800080800000800080800000008000BE
:1031910000008000008080008080808000800080AE
:1031A100800080808000808080000000000000009E
:1031B100808080800080008080800080800000000E
:1031C100000080000000800000000000000080007E
:1031D100000080808000800000000080800080006E
:1031E100800000808000808000808000808080805E
:1031F100000000000000000000000080000080804E
:10320100008000800000800000800000800000003D
:1032110080800000808080808000000000800000AD
:10322100000000000080008080800080008080001D
:10323100008080808000008000000080000080000D
:10324100800000808080008000800000008000807D
:1032510000008000808000808000008000800000ED
:1032610080800000800000008080008080800080DD
:1032710000000000000000000000008000008080CD
:1032810080008000808000000000000080000000BD
:1032910000000080000000800080000000008080AD
:1032A100808000008000808000808080800080809D
:1032B100000080000000808080000080008000808D
:1032C100008080800000800000808080000080807D
:1032D100000080800080000080000080800000806D
:1032E10080000080000080800000000080000080DD
:1032F10080000080000080008080008000800080CD
:10330100000000808000000000808080808000003C
:1033110000000080008080808080800000008000AC
:10332100000080008000800080808000000080809C
:10333100000080800000800000008080008080000C
:1033410000008080800000800080800080808000FC
:1033510080000080008000008000008000000000EC
:10336100800080800000000000000000808000805C
:1033710000800080808000008080800080808080CC
:1033810080000080800000008080800080000000BC
:1033910000800000800000000000800000800080AC
:1033A100800080808000800000808000000080001C
:1033B100800000800000000000000000800080808C
:1033C100000080800000808000000080000080807C
:1033D100000000808000000080000000008000806C
:1033E10000800000808000808080000000008080DC
:1033F10000800080008000800080800000808000CC
:10340100008000800080000080008000800080003B
:10341100000080000000008080800000000000802B
:10342100808000008080000000808080000000001B
:10343100000000008000808080808080008080808B
:1034410080008080800000808080008000008000FB
:10345100800000800000000000800000008000006B
:1034610080008000000080808000808080808080DB
:10347100800080000000008000808000000080004B
:10348100000000800000008000000080808000803B
:1034910000000000008000008000808080808000AB
:1034A100800000008000000080808080000000809B
:1034B100008000008000808000000080008080008B
:1034C10000800000808080800080008080800080FB
:1034D10080800080800000800080000000008080EB
:1034E100800000008080008000800000000000005B
:1034F100800000800080008000800000008080004B
:1035010080800080808000800000800000808080BA
:1035110000808000000080800080800080000080AA
:10352100000080008080000000800000800000001A
:10353100000000000080008000000080000000808A
:1035410000808000808000000000808000800000FA
:10355100008080008000800080008000008000806A
:10356100808080008080800000000080008000005A
:10357100808080808000808000000000800080804A
:10358100008000800080808080808000008080003A
:10359100000000808000800080000000800000802A
:1035A100008080800080808000808000008080809A
:1035B100000000008000000000000000008000000A
:1035C100800000000080808080800080000000007A
:1035D100008000000080000000008080008000006A
:1035E10000000080008080808000008000800080DA
:1035F100000080800000000080808080808000804A
:1036010000008000808000000000000080000000B9
:103611000000000080000080008000800000008029
:103621000080808000000080800080800080808099
:103631000000800000008000800080008000000009
:103641008000800000000080808000800000808079
:103651008080000080008000808080000080000069
:1036610000000000000000008080800080800000D9
:103671008000000000800000000000008000800049
:103681000000000080008000800080008000008039
:1036910080008080800080008080808080008000A9
:1036A1000080000080000000800000008000808019
:1036B1008080800000008000800080008000808089
:1036C10000800000008080008000808080808080F9
:1036D10000000000800000808000008000000000E9
:1036E10080008080800080008080008080008000D9
:1036F1008080800080008080808080008000008049
:1037010080808080800000808000800080000080B8
:1037110080000000808000808000808000008000A8
:103721008080800000008080000000800000800018
:103731008000008000800080008080008000000008
:103741000000800000000000008000000080008078
:103751000000800080000080000000800000000068
:103761008000800000008000000080800000800058
:103771000000808000008000808000000000800048
:103781000080008080008000000000008080808038
:1037910000000080800080800000800080008000A8
:1037A1008000000000800000808080008000800098
:1037B1000080008080800000000080800000808008
:1037C10080008000800000000080008080008080F8
:1037D10000808080800080000000800080008000E8
:1037E10000808000808080800080808080808000D8
:1037F1008000008000808000808080800000800048
:1038010000800080008000008000000000008080B7
:103811008000008000008080000080000000000027
:103821000000800000008000800080000080000017
:103831008000008080800000008000808000800087
:1038410000800080000080008080000000000000F7
:1038510000000000000000000080800080008080E7
:103861000000000000808000808080000080000057
:103871008000800000008080000000008000008047
:103881000000008080800080808000008000800037
:103891000000808000800000808000008000000027
:1038A1000080800000800080800000808000008017
:1038B1008000000000000080000080000080000007
:1038C10000808080800080000000800080800000F7
:1038D1000000000080000000808080008000000067
:1038E1008080800080800080008080008000808057
:1038F1000000000080000000008000008080008047
:1039010080800000008080800080808000000000B6
:103911008080008000800000008080008080800026
:103921008080808000808000800000800000000096
:103931000000800080008000800000000080800086
:103941000000008000800080000080808000808076
:103951000000000000808080000000008000808066
:103961008080000000008000000080000080800056
:1039710000008000800080800000000080008080C6
:103981000080008000008000000000800080008036
:1039910080000000800000008000008000000080A6
:1039A1008080008000000080808000808000800096
:1039B1000080808000000000000000800000808006
:1039C10080000080000080808080800080000000F6
:1039D10080808000800080008000008080808000E6
:1039E10080008080808080000000008000808080D6
:1039F10080008080000000800000808000000000C6
:103A010080000000008000000080808000800000B5
:103A110000008000000080008080808080008000A5
:103A21000080008000808080008080008000008015
:103A31000000800080008080000080800080000005
:103A410080008000000000000080808000808000F5
:103A510080000080800080800000000080808080E5
:103A610000008080008000800000000000008000D5
:103A71000000000000800080000000808000808045
:103A810080808080008000008080008080808000B5
:103A91000000008000000080008000808000008025
:103AA1008000800080000080000000000000008095
:103AB1008000808000800000008080008000008005
:103AC1000000808000000000008080008080800075
:103AD10080800080800080800080800080808080E5
:103AE1000080808000808000808000000000000055
:103AF1000080000080008080000080800080000045
:103B010080808000008080808000808000800000B4
:103B110080000080008080000080000000000080A4
:103B21008080808000000000000000000000800014
:103B31000000000080000000000000000000008084
:103B41000000800000008000008000800080800074
:103B510000008080008000000080808080008080E4
:103B61000000008000800000008080800000008054
:103B710000800000000000000080008080800000C4
:103B810000808080808080800000000000008080B4
:103B91008080800000800080808080808000808024
:103BA1000080000080008080808000008000808094
:103BB1008080008000008080800080008000808004
:103BC10080008000800080000000000000800080F4
:103BD1008000800080800080008000008000808064
:103BE1008080008000000080808080000080008054
:103BF10000800000000000000000000080000000C4
:103C01000000000080000000808000000000808033
:103C110000808000000000000000800000000080A3
:103C21000000000080808000800080000080800013
:103C31000080008080808080800000008000808083
:103C410000000000808080008000008000800080F3
:103C510080000000000080000080000000008080E3
:103C61000000800080808000008000008000808053
:103C71000000008080000000800000800000000043
:103C810080000080008080800080000080008080B3
:103C91008000000000000000000080800000800023
:103CA1008000000080800080000000800080808013
:103CB1008000808000800000808080008080000083
:103CC10080800000000080800000000000800080F3
:103CD1008000000000000080008000000000808063
:103CE1000080808080008080800080800000808053
:103CF1008000000080808080800080008080808043
:103D01008080808080800000000080008080000032
:103D110000800000008080000000000000000080A2
:103D21000000000000000000808080000000000012
:103D31000080800000000080008000008000808002
:103D41008000000080000000800080800000008072
:103D51008080000080008080008000800080808062
:103D61000000808000800000008080008080008052
:103D710000008080800000008000008000008080C2
:103D81000080008000000000800000008000808032
:103D910080000080808080000000800080000000A2
:103DA1008000800000008080800080800000800012
:103DB1008000808080000000008000800000808002
:103DC1008000008000800080000000008000000072
:103DD10000808080000080808000808000008080E2
:103DE10080000080000000800000800000008080D2
:103DF1000000008000808000000080800000000042
:103E01008000008080008080008000008000808031
:103E110000000000008000008000008080000000A1
:103E21000000808080800000008000800000000091
:103E31000080800080800000800000808000008081
:103E410000808000808080000000008000800000F1
:103E51000000800080000000000000008000008061
:103E61008000800000808080008080808080808051
:103E710080800080808000800000800000808000C1
:103E81008000008000008000808080800000008031
:103E910000008080808000000080800080000000A1
:103EA1000080808000800080800080000000000091
:103EB1000000808000800000008000000080000081
:103EC1008000808000800000808000000080000071
:103ED10000808000008080000000800080808000E1
:103EE1008080808000800080000000008080008051
:103EF10000808000800080008000000000800000C1
:103F010080000000800000008000808000800000B0
:103F11000000008000808000008080800080808020
:103F21000000008000008000008000008000800010
:103F31000000808000008080008000808000008080
:103F410000008000008080000000800000008000F0
:103F510080800080008080800000008000808000E0
:103F61008080000000800000808080800080000050
:103F71000080000000808000808000808000008040
:103F810000000080008080800080800080000000B0
:103F91000080008000808080000080800080000020
:103FA1008000000080000000800000808080800090
:103FB1000080008000808080808000008000800080
:103FC10080008000800080808000000080800000F0
:103FD1000000000080800000000080800080808060
:103FE10000800000000000000000000000800000D0
:103FF10000008000800000008000808000808080C0
:1040010080008000808080800000008080800080AF
:10401100800080008000808080000000008000001F
:10402100800000000000808000008080000080008F
:10403100808000808080000000800080800000007F
:1040410000808000000080000000000080800000EF
:10405100008000000080808000008000000000805F
:10406100000080008080808080000080000080004F
:1040710000008080808000000080000080008000BF
:1040810080800000008000808000000000008080AF
:10409100800000800080808000800000008080809F
:1040A100808000800000000080808080000080808F
:1040B100008000800000000000008000008000807F
:1040C100008000800000008080008080008080806F
:1040D100008000008000008080800080800000005F
:1040E10080800080800080008080000080008080CF
:1040F10000000080000080000000000080000080BF
:10410100008000008080800000000000800080802E
:10411100000000008080008000808000000080009E
:10412100000080008000008080000080008080808E
:1041310000808000808000800080000000008000FE
:1041410000800000800080800000800000808000EE
:10415100008000000000008000800000808000805E
:1041610000008080008000008080008080808000CE
:10417100000000000080000080000080000080003E
:10418100800000008080000080800080008080002E
:10419100008000008000008080000080008000001E
:1041A100800080800080008080800080800080000E
:1041B10080000080000000800000000080008080FE
:1041C100800000800080008000808080800080006E
:1041D10080800000000000000080800080008000DE
:1041E100808000000000800000808000000080804E
:1041F10000008000008000800000800000800080BE
:10420100000000800080008000800000808080002D
:10421100800080000080808000800000008080801D
:10422100000080008080008000808000008080800D
:10423100808000800080008000808080000000007D
:1042410000008000008000808000000000808080ED
:10425100800080800080008080008080800080005D
:1042610080800080800000000000008080008000CD
:1042710000800000800080800000800000800080BD
:1042810080000080008080000000008080008000AD
:10429100000080800000800000000000000080001D
:1042A100000000000000008000800000008000800D
:1042B10000008000800080808000800080008000FD
:1042C10080008000800080800080000080000080ED
:1042D10000000000000080008000808080008000DD
:1042E10000800000008080808080008080800080CD
:1042F10000008080000080008080000080800080BD
:10430100800080000000008000800000000000802C
:10431100008000008000000080808080800080801C
:10432100800000000000800080000080008000000C
:1043310080808000808000000080808000808080FC
:10434100000080000080008000000080008000806C
:10435100000000000000000000800080800080005C
:10436100800000808000008000800000800000004C
:10437100000080000000808000808080000000003C
:10438100008000800000000000800080808000002C
:10439100008080800080008000000000808080001C
:1043A100800000008080008000808080000000008C
:1043B100808080800080808080808000000000807C
:1043C10080800000000080008000800080808000EC
:1043D10000008080800000000000000000808080DC
:1043E10080800000800080008000808000800000CC
:1043F10000808080800000008000008080808080BC
:1044010000008000808080008080000000000000AB
:10441100800080008000008080808000008080809B
:10442100008000000000000000000000800000008B
:10443100008000000000008000008000008080807B
:1044410000800080000000800080008080800000EB
:10445100808080000000800000008000000080005B
:10446100808000008000000080808080800080804B
:1044710080008000008080008080000080008080BB
:10448100800080800080000080008000008080002B
:10449100808080000000800000800000008000001B
:1044A100000000808080008000008000008000808B
:1044B10000008080000000800000808000800000FB
:1044C10000000000808080008080000080008080EB
:1044D100008080000000808000000000808000805B
:1044E100000000800080800080000000000080004B
:1044F10080008000800000000000000080808000BB
:10450100008000000000808000000080008000002A
:10451100808080008080000000800000800000809A
:10452100000000000000008000800080000080008A
:10453100000080800080008000008000008000007A
:10454100000080000000800080800080808080006A
:1045510000000080008000000000008000000000DA
:1045610000800080008000000000000000000000CA
:10457100008080800000808080800080808000003A
:1045810080808080800000808080008000808000AA
:10459100000080800000808080800080800000809A
:1045A100800080808000000000808080808080808A
:1045B100800080800080008000008080000000007A
:1045C10080000080000000808000008000000080EA
:1045D100008000008080800000000000000000805A
:1045E100808000800000000080000000808080004A
:1045F100008000808000808080008080000000803A
:104601008080008000008000000080800080000029
:104611000080008000000000000080808000800099
:104621000000808000000000808000808080008089
:1046310000000000800000000080000080800080F9
:104641000080808000008080808080000080008069
:104651008000008080008000808000800080000059
:1046610080800000800000000080008000000000C9
:104671000080800000800080808000808080008039
:1046810080008080000000000080000000808080A9
:104691008000000080808080000080000000800099
:1046A1008000008000008080808000800080000009
:1046B10080008000800080008000800000000000F9
:1046C1008000800000800000808080008000808069
:1046D10000000000008080808080008080008000D9
:1046E10080000000008000800000808080000000C9
:1046F10080800000000080000000800000000000B9
:104701008080800080000080008080808080008028
:104711000080808000008000008080008000800098
:104721000080000000000080000080808000008088
:1047310000008080000000008000000080808080F8
:104741000000808080000080808080008080008068
:1047510000000000000000800000008000000080D8
:104761000080808000008000808080000000008048
:1047710080800080008080800080800080008080B8
:104781000080800080008000808080800000000028
:104791008080000000800080000080800000008098
:1047A1008000808000000000808000008080808088
:1047B1008080008080000080808000008080000078
:1047C1000000800000800000000000000000800068
:1047D1000000008000000000008080800000008058
:1047E1008080008000000000800080800080000048
:1047F1008080800000800000808080800000800038
:1048010080000080800000800080000080000000A7
:104811008080008000000000000080000000808097
:104821000000000080800000000000008000000007
:104831008000808080000080800080008000000077
:1048410000808000800000000080800000808000E7
:1048510000008080800080008080800000000000D7
:1048610080808000000000008080808080800000C7
:104871008000000000800080008000000080008037
:1048810000808000000000800080000080808000A7
:104891000000000080808080008000000080808017
:1048A1000000008080800080008080808000000007
:1048B10080000080800000800000808080800000F7
:1048C10000800000800000808000800080800080E7
:1048D10000808000008000000000008000800080D7
:1048E10000000080008000808000000080000080C7
:1048F10000000080008080800000000000008080B7
:1049010080808000008000008080800000000080A6
:104911000000000080800080000000000080008016
:104921000080800080808080000080000000800086
:1049310080000080000080008000000000000080F6
:104941000000800000000080008000808000008066
:1049510000000000000000800000000080000080D6
:1049610080800080000000808080808000000080C6
:104971008080000080808080808080008080008036
:1049810080000000000080008000800080000000A6
:104991000080000080800080800000808080808016
:1049A1008080808080808080008000008000800086
:1049B1000000800000000000808000008000008076
:1049C1000080008000000000800000000000808066
:1049D10080800000008000008000008080008080D6
:1049E1000000800080000080808080800080800046
:1049F10080800080008000808000008080808000B6
:104A010000800000800080000080808000008080A5
:104A11000000000000008080000080000000008095
:104A21000000008000800000800080808000008005
:104A31000000808080008000808000000000808075
:104A410080800000008080008000800080800080E5
:104A510000008000008000800000800000808080D5
:104A61000000800000000000008080008080008045
:104A710000808000000080000000800000800000B5
:104A810080800080808080008080800000000000A5
:104A91000000800080808000800000808080000015
:104AA1000000808000808000008000800000000005
:104AB10000808080008000800080800000008000F5
:104AC1008000000080008000808000008000008065
:104AD1008080008000800000008000008080000055
:104AE10080000000000000000000800000000000C5
:104AF1000000000080000000800080808080800035
:104B01008000800000008000000080008080008024
:104B11000080000080008080808080808080808094
:104B21008000808000008080808080000000000084
:104B310080800000000000800000000080000080F4
:104B410000800080808000008000800000800000E4
:104B51008000800000808000800000008000000054
:104B610080800000808000000080800000800000C4
:104B71008080800000800000000000808000808034
:104B81008000008080000080800080000000000024
:104B91008000800000800000008000808080000094
:104BA1008000808080008000000000800080800004
:104BB10080000000008000000080008000808000F4
:104BC1008000808000000080808000800000000064
:104BD1008080008080808080800080808000808054
:104BE1000080008000008080000080000080008044
:104BF10000808000000000808000008000000080B4
:104C010000000080000080008080008000000080A3
:104C11000000800080800080800080808080808013
:104C21000000808080008080000000800080800083
:104C31000000008000000000808000800080800073
:104C41008080808080800080808000800000808063
:104C510080000000000000800000000080000000D3
:104C61000000008000000000800080000080000043
:104C710000000000008000000000000000000000B3
:104C81008000008000800080000000800000800023
:104C91000080000000008080008000008080800093
:104CA1000080808080000080008000000080008003
:104CB1008000800000000080800080800080000073
:104CC1008080808080800000800000800080808063
:104CD1000080008000800080808000008000808053
:104CE10000000080800000000000800080000000C3
:104CF10080008000808000808080000000000080B3
:104D01000080808080800000000000008000800022
:104D11000000800080000080000000008080000012
:104D21008080000000808000800080808000008002
:104D310000808000808000808000000000800000F2
:104D410000000000008000808080008080808080E2
:104D510080000080808000008080808080000000D2
:104D610080000000800000808000800080000080C2
:104D71000080800080800080008080008080008032
:104D81000000008080800000808000008080008022
:104D91000080800000000000000000800000008012
:104DA1000000008000000080008000000080000002
:104DB1008000000080800000800000800000000072
:104DC10000808000000000800000800000808000E2
:104DD1000080800000008000008000008000000052
:104DE10080800080000000008000808000008080C2
:104DF1000080808080800080000000008000000032
:104E010000000000000000000000000080008000A1
:104E11000080008080800080808080000000800011
:104E21000000808080800080008080808080000081
:104E310080808080008000808000008080008080F1
:104E41000000808080808080808080000000008061
:104E510080000080800080008080000080000000D1
:104E610000800000800000008080800000800080C1
:104E710080800080008080008080008080008080B1
:104E810000800080808080008080800080008080A1
:104E91008080008000808000008000000080808091
:104EA1000000008000808000808000808000800001
:104EB10080808000808000808000000000008000F1
:104EC10080000080800080000080000000000080E1
:104ED1000000000000008000000000008000008051
:104EE1000080000080000000800000000080008041
:104EF1000000000080000080800080000080000031
:104F01008080000080800000008000000080008020
:104F11000080008000000080000000808000000010
:104F21000000808080800080000000808000000000
:104F310080008000800080800000008000000080F0
:104F41000000800080008080000080808080808060
:104F510000800000800080800000008080000080D0
:104F61000000000000008000000080800080000040
:104F71008080000080000080800000008000808030
:104F81000000808000000080808000008080800020
:104F91008000000000800000800000800080000090
:104FA1008080000000008080800080800000800000
:104FB1000000000080008080000000800080808070
:104FC10080008000000000008000008000800080E0
:104FD10080808080800080008000800080808080D0
:104FE1000000000080808000000080008000808040
:104FF10080000000800000008000000080000000B0
:10500100808000808000000000800000000000809F
:10501100008000800080008080808000808080008F
:10502100800080008080000000008080000000007F
:1050310000800080808080000000000080000080EF
:1050410000000000008080008080800080008000DF
:10505100808000008080008000808080000000004F
:10506100000000000080008000808080808080003F
:10507100800000808080000080000000000080002F
:10508100808000008000008000008000800080009F
:10509100800000008080808000008080808080808F
:1050A100000000808000000080008000808000807F
:1050B100008080000080808000000000800000806F
:1050C100000000000000008000000080800000005F
:1050D10080008000000000800080000080008000CF
:1050E100008000008000000080000000000000003F
:1050F10080000080000080008080800000008080AF
:10510100000080000000000080000000808000009E
:10511100000000808000808000008000008080000E
:1051210080800080808000008000800000000000FE
:1051310000000000008000808080000080808000EE
:1051410080808080800000808080000080808000DE
:1051510080008000008000008080808080008000CE
:10516100808000800000808080800080808080803E
:1051710080800080808080000080808000000000AE
:10518100000000008000800000000000000000809E
:10519100008000808000808080008080008080000E
:1051A10000808080008000808080008080800000FE
:1051B10000000080800000808080808080008080EE
:1051C100008000008080800080008080800080005E
:1051D10000000000800000008000808000808000CE
:1051E10080000080800080808000800080808000BE
:1051F100000080000000000080000000000080002E
:10520100800080000000000000800000808000809D
:10521100000000808000000000000000008080800D
:1052210000008000800000000080800000008000FD
:10523100808000000000000080008080808080006D
:1052410080808000008000000080008000008000DD
:1052510000000080000000000000808000800080CD
:1052610000008000808080000000008080000080BD
:10527100808000800080808000000080808080002D
:10528100800080008080008000008080800000809D
:10529100008080800000808000800000008080808D
:1052A10080800080008080808000008000008080FD
:1052B10000800080008000800080000000000080ED
:1052C10080800000800000808000008000000000DD
:1052D100000000008000000000800080000080804D
:1052E10000800000800080000080800080000000BD
:1052F10000808000800000000080800000000080AD
:10530100000000000080800000008080000080001C
:10531100000000800080800000800000800080008C
:10532100008000808000008000008080800080007C
:1053310080008000000080800080008000808080EC
:1053410000000000800000800000008000808000DC
:1053510000800080008080808080008080800080CC
:1053610000800080800080008000800080800080BC
:1053710080000080808080000000808080008000AC
:10538100000000000000800000008000000000001C
:10539100808080808000008000008000800000808C
:1053A100800000008000008080008000000000007C
:1053B100008080800080800000008080800080006C
:1053C100008000800000000000808000000000805C
:1053D100008080008000008000000080000000004C
:1053E10000808000000000800080808000008080BC
:1053F100800000800000000000000080800080002C
:10540100000000000000800080800000800080809B
:10541100808000800000008080000080000080000B
:10542100000080800000808000800080000080807B
:10543100800000808080808080800080800080806B
:1054410000000080800000008000000000000000DB
:10545100008000808000800080800080008080804B
:1054610080000080800080800000000000008080BB
:10547100808000800080008080800080800000802B
:10548100008080000000000000000000800080001B
:10549100800000800080008000800080800000800B
:1054A100808000808000000000008080800000007B
:1054B100000000008000808080008000800000806B
:1054C10000808000800000008080000080808000DB
:1054D10080008000800000000080800080800080CB
:1054E100808080008000800000800000808000803B
:1054F100808000800080000080000080800080802B
:10550100008000800080800000008000800080809A
:10551100808000800000800000000000808080000A
:10552100008000008080000080000000000000007A
:10553100008000000080800080000080000080006A
:1055410000008080800080800080000000000080DA
:10555100800080800000808000000000008000004A
:10556100808000008000008080000000800000003A
:10557100008080008000800000008000000000802A
:10558100008080800080808000000000000080009A
:10559100000080808000808080800000000080000A
:1055A10000800080000000008000800080008000FA
:1055B10080008080808080000000808000008080EA
:1055C10080800080808000000080008000800000DA
:1055D100008080000000808000808000800000004A
:1055E100000000000000000000800080808080003A
:1055F10080000000800000800080800000808080AA
:105601008000808080800080800000808080000099
:105611000080800000000080008000000080000009
:1056210000008080808080000080008000800080F9
:1056310080008000000000000080000000800080E9
:105641000000800000000000000000000000800059
:105651008000008000000000808080000000008049
:105661000080000000800000800080000080800039
:1056710080800000008000800080800080808000A9
:105681008000000000800080000000000080000019
:105691000000800000800000808000808000008089
:1056A1008000800080008000000080000000000079
:1056B10000800080008080808000808000808000E9
:1056C1000080808080800000008080808080008059
:1056D1008000000080000080800080000080800049
:1056E1008000800080808000008080008080808039
:1056F10000008080000080800000800080008080A9
:105701008080000000000080008000800000000018
:105711008080800080800000000080800000800088
:105721008080000080000080000080808080000078
:105731000000008080008000000080008080000068
:105741000080000080008000808080008080000058
:1057510000800080000080000080000080800080C8
:105761000000808000800080008000000000800038
:1057710000000000008000800080000000000000A8
:105781008080800000808080008000800000008098
:105791008000808000008080000000008080000088
:1057A1000000008080800080800000808000808078
:1057B1008000800000000080000080800000808068
:1057C1008080800080808080800080000000000058
:1057D1008000800080000000808000008080000048
:1057E10000008000000080000080800080008000B8
:1057F10080808000800000000080008000008080A8
:105801000000008000008000000080008000008017
:105811008000808080000000000000000080808007
:1058210080008080008000800080800080008000F7
:105831000000000000000080000000000000800067
:1058410080008080808000000080000080808000D7
:1058510000800080000000800080808000008000C7
:105861000080808080800080008000000000800037
:105871000000808080808080808000800000800027
:105881008080008000808000008080000080808017
:105891008000000000800000000080800080000087
:1058A1000000000080808000800080000080008077
:1058B1000000008080800080000000800080008067
:1058C10080000000008080808000800080800000D7
:1058D10080808080800000008080008000800080C7
:1058E10000008080800080808080800080008000B7
:1058F1000080000000800000800000800080808027
:105901000000000080000000000080808000008016
:105911008080000000008080800000000000008086
:1059210000800000800000800080008000008080F6
:105931008000008000800080000080800000000066
:1059410000800000800000008080008000008080D6
:105951000000000000808000008080008000800046
:105961008000808080000000000000008000008036
:1059710080800080008000008000008000808080A6
:105981000000808080000000800080000080008096
:105991000000808000808080008000008080800086
:1059A1008080000080008080800000800000808076
:1059B1008000008080808000800000800000808066
:1059C1008000808080000080000000800000008056
:1059D10000000000008080800080000080000080C6
:1059E10000800000808000000080000080000080B6
:1059F1000000000080008000800080800080008026
:105A01008000000000808000800000800000008095
:105A11000000008000008080008000008000008085
:105A210080000000008080000000800000000080F5
:105A31000080808000008000000000800080000065
:105A410000800000808000800080800080800080D5
:105A51008000808080800000800000800000800045
:105A61008000000000800080008000008080000035
:105A710080808000800000808080000000808000A5
:105A81000000800080008000808080800000008015
:105A91008080000080000000800000000000800085
:105AA10080000000808080008000800080008000F5
:105AB10000008000800000800000808080008080E5
:105AC1008000808080808080000080000000008055
:105AD10000000080000080808000800000000080C5
:105AE1008080000000808080000080800000000035
:105AF10000000000000080800000800000800000A5
:105B01008080000000008000000080000080808014
:105B11008000800080808080800000000000800084
:105B21008000000080000000808000008000008074
:105B31008080008080800000808000000080000064
:105B41008080800000000000800080000000800054
:105B51000080800080800000000000800080000044
:105B610000008000800080808080000000800000B4
:105B71008080800000800000800000800080008024
:105B81000000800080000000808080008000008094
:105B91000080808000800080800080000000808084
:105BA1000080808000808080008000000080008074
:105BB10000000080000000008080000000008000E4
:105BC1008080808000000080000080000000800054
:105BD10000008080000080800080008000800080C4
:105BE1008000808000008000800080808000008034
:105BF10000800000800000000000000080008000A4
:105C01008000000080008080008000008080800093
:105C11008080808000808000808000008080000083
:105C21000000800000800080000000800000808073
:105C31000000008000800080808000808000008063
:105C410000000000008000000080000000008000D3
:105C510000808080808080800080808080800080C3
:105C61000000800080808000000000800080808033
:105C710000008000008080000080808000800000A3
:105C81000000800000000000800000000080008013
:105C91008000000000800080000000800080800003
:105CA1008080800080008080008000808000000073
:105CB10080008000000000008000800000800080E3
:105CC10000800080008080800080800000008000D3
:105CD10000808080000000008080008080000080C3
:105CE1008080008000800000808000008000000033
:105CF1000000800000000000800080000080008023
:105D01008000800080008000800000008000800012
:105D11000080808080808000808000000080808002
:105D210080000000800080008080800000800000F2
:105D310000008000008000808000808000000080E2
:105D41008080000080000080000000000080008052
:105D510080000000800000008000800000008000C2
:105D610080000080008000800080008000800000B2
:105D71008080000080000000808000000080000022
:105D81008000800080000000808080008000008012
:105D91008080008000800000800000000080800082
:105DA10080008080800000000000808000808000F2
:105DB10080808000000080008000800000000000E2
:105DC10080008000008000008080808080800080D2
:105DD10080000080808000000080000080008080C2
:105DE1008000000000000080000080808000000032
:105DF1000080808000008000808000008080008022
:105E01008080808080008000800000800000808091
:105E11000000800000808000000000000000000001
:105E210080008080008080800080808000000000F1
:105E310000000000008080800000808000808000E1
:105E41000000808000800000008000800000800051
:105E51000080008080800000000080000080000041
:105E610000008080800080000000800080000080B1
:105E710080800000008000008080800000800000A1
:105E81000000800000000000000000800000000011
:105E91008000000000008000000000808080800001
:105EA10080800000800080008000808000800000F1
:105EB10080800080808080808000808080008000E1
:105EC10000808080008000808080008080800000D1
:105ED10000008080800000008000000000800080C1
:105EE1008000000000808000808080808080808031
:105EF1008080808080808080008080808080808021
:105F01008080808080808080008080808080808010
:105F11008080808080808080008080808080808000
:105F210080808080808080800080808080808080F0
:105F310080808080808080800080808080808080E0
:105F41008080808080808080000000000000000050
:105F51000000000000000000000000000000000040
:105F61000000000000000000000000000000000030
:105F71000000000000000000000000000000000020
:105F81000000000000000000000000000000000010
:105F91000000000000000000000000000000000000
:105FA10000000000000000000000000000000000F0
:105FB10000000101010101010101010101010101D2
:105FC1000101010101011818180101183030606048
:105FD10090603050700108080860B40101010101AE
:105FE100010101010101010101B0010000000000F6
:025FF1000000AE
:0D617300000000000000000000000000001F
:0F6184000000000000000000000000000000000C
:00000001FF
