00000000000000000000000000C00000C038204020100808304080000000000000000000000000000000
000000000000008060F0C02018071E8C0300000000000000008081828C90080618608000000000000000
00000000F8040300000108F47EC2838282F0FCF8FCF8FCF4F0F8F8D1C18387FEFC0001063CC000000000
00000000FF00000000E02021C3E7B7AF5FC71F17EF8F4F3FFFD73FB7A783834321E00000000718E00000
0000181611101014141716161517141517151616151715151715161616151715151714141010101F0000
