:10010000C34E06CD58070604160021AE07C51E04CF
:100110000660CDD0BFCD2C072314C110F01105040B
:10012000219207060ECDF1BFCD4707FE1E28121102
:100130000504060E23CDF1BFCD4707FE1E28021889
:10014000DCCD5807110300060B217707CDF1BF2145
:100150008207CD2A0321050222F20021030222F0A8
:1001600000EB3E3ECD62BECD4707DC3F03FE2828B4
:1001700005CDD30218F13AF100FE03DA8701CA8BEC
:1001800001FE05DA8F01C8CD0103C9CD0103C9ED18
:100190005BF0003E20CD62BE3E0232F100573E3E93
:1001A000CD62BE21C302CD2A03CD4707DC3F03FE4B
:1001B000282805CDD30218F13AF100FE03380BCA06
:1001C000DE01FE05DABF02C34101CD010321080AA9
:1001D0001101010618CDF1BFCDFDBCC34101CD58C1
:1001E00007110400219202060FCDF1BF2102012266
:1001F000F000CDD40321F7057EB7CA410111DF0518
:10020000011800EDB0CDCF0511040221A102060BAB
:10021000CDF1BF21020322F000CD10043AF705B75B
:10022000CA4101CD7002E521DF05AF0EFFEDB1013E
:1002300021FA09E5C1D121DF05EDB021F705AF0EA7
:10024000FFEDB10109FA09E5C121F705EDB0EBAF0A
:100250007723772336FF21060A3411030421AC02E9
:100260000613CDF1BFCDFDBCFE07CADE01C34101BF
:100270002A060A110100CD1C0611080AEBD83EFF20
:100280000EFFEDB11BE5EB110100CD1C06EBE130DB
:10029000EDC9B4B2C0DDBADEA6B2DAC3B8C0DEBB07
:1002A000B2B2D0A6B2DAC3B8C0DEBBB2C2C2DEB947
:1002B000C3B6B7CFBDB63F20593AC2C2DEB9D9CD19
:1002C0000103C9D0D92020B6B7BAD1B9BD2020D3F7
:1002D000C4DED9CD4606FE013808280BFE03380CD3
:1002E00018F1212E091808217609180321BE0916D4
:1002F000020603C51E110618CDD0BF2314C110F38A
:10030000C92A060A7CB7C07DB7C0CD5807211F0394
:10031000110601060BCDF1BFCDFDBCF1C34101C3F8
:10032000DEB0C0B6DEB1D8CFBEDD06041602C51EF3
:10033000040604CDF1BFCD2C071423C110F0C9F57C
:10034000ED5BF0003E20CD62BEF1EBFE1F280FFEFC
:1003500020280218103AF300BC280A2518073AF2A0
:1003600000BC280124F522F000EB3E3ECD62BECD5C
:100370002807F1C921BA03E5CDFDBCFE18300D3DBB
:1003800028223D21BE0316005F197EC9FE282817CA
:10039000FE292817FE312816FE322815FE392814AA
:1003A000FE3A2813F1AFC9E13EFFC93E6CC93E6970
:1003B000C93E6FC93E70C93E20C932F400C9717789
:1003C00065727479756173646667686A6B7A78635D
:1003D00076626E6DCD0F06E5CD7403E1B728F8FEA9
:1003E00020281DFEFF282877110B06CD1C063001A2
:1003F00023E5ED5BF00021F7050618CDF1BF18D815
:10040000360011F805CD1C0638E72B360018E2C976
:10041000CD0F06AF32A10532A205E5CD7403E1B7D9
:1004200028F8FE20CAA305FEFF28E4CD6904E5F5FF
:10043000ED5BF00021F7050618CDF1BFF130DCE1EE
:10044000110B06CD1C0630D223F53E00FE0D280F01
:10045000FE093007AF324B04F118BF3EDE18023EF2
:10046000DF77AF324B04F118C5E50821A1057EB74F
:10047000CA2205232B7E08FE612817FE692813FE79
:1004800075280FFE65280BFE6F2807FE6E283AC3FD
:1004900023050821DB04010E00EDB9C222054178D5
:1004A000324B043E05CD5506260011DC041908FE2A
:1004B000612812FE69280DFE752808FE652803FED6
:1004C0006F232323237EC37D053EDDC37D056B7330
:1004D000746E686D797277677A646270B6B7B8B90E
:1004E000BABBBCBDBEBFC0C1C2C3C4C5C6C7C8C9F4
:1004F000CACBCCCDCECFD0D1D2D3D4B2D5B4D6D72F
:10050000D8D9DADBDCB2B3B4A6B6B7B8B9BABBBCDB
:10051000BDBEBFC0C1C2C3C4CACBCCCDCECACBCC7A
:10052000CDCE08117D05D5FE612843FE692842FE27
:10053000752841FE652840FE6F283FD1119505D5ED
:10054000FE6BC8FE73C8FE74C8FE6EC8FE68C8FEA7
:100550006DC8FE79C8FE72C8FE77C8FE67C8FE7A0D
:10056000C8FE64C8FE62C8FE70C8D1E1B7C93EB11A
:10057000C93EB2C93EB3C93EB4C93EB5C9E177E58B
:1005800021A105AF77237721A0071100050603CD30
:10059000F1BFE137C932A105110005CD62BEE1B757
:1005A000C90000E521A1055E1C1D28103600233678
:1005B0000021A0071100050603CDF1BFE1360011AF
:1005C000F805CD1C06DA2E042B3600B7C32E04D94D
:0F05D00021F705360011F805011700EDB0D9C964
:10060F00EB3E3ECD62BECDCF0521F705C9D5E5B78F
:10061F00ED52E1D1C9F5CD3506F5067FCD35061082
:10062F00FB6FF167F1C9210000545D2929191111E0
:10063F0064192236067CC9CD3506E607C926002186
:10064F00FFFFCD7F06C9C5D55F1600210000B72873
:10065F0007050428031910FDD1C1C9C50604B71732
:10066F0010FCC1C9000000131070000000065535C2
:10067F00217306111807010C00EDB0AF2112070608
:10068F0006772310FC1E010E0C3A1E07E6F0200F12
:10069F001C2123070606ED6F2B10FB0D20EBC9DD88
:1006AF00211707CB3B432805DD2B10FC430E00C55C
:1006BF00DCDB06C178B7C8C5CDCE06C110F9C90EAF
:1006CF0000CDE406CB21CB21CB21CB21CDE406DD20
:1006DF007100DD23C9111D07212307B70606D5E5D4
:1006EF001A9E27121B2B10F8E1D138030C18ED06B8
:1006FF0006B71A8E27121B2B10F8AF060623ED67CD
:10070F0010FBC90000000000000000000000000006
:10071F0000000000003E7818063E5018023E28C523
:10072F00010000030000000000B8280218F5C1C93D
:10073F003EC818063E0118023E78C547C5CD53BEC8
:10074F00C138EBB70528E718F31600D5060C1E00C5
:10075F00C5D521A007060CCDD0BFD11C1CC110F0F0
:10076F00D1147AFE0620E4C94D4F44452053454C21
:10077F00454354B1C5B3D2B2D0B3D2BCDEBCAEB5D3
:10078F00DCD92070757368207370616365206B65A9
:10079F0079000000000000000000000000000000D1
:1007AF00001030303030303030FEFEFE3030303020
:1007BF003030FEFEFE303030303030302000000060
:1007CF00000000000000040C3C7870040C3C7870B2
:1007DF00000080E07C3C1C080000000000000000CE
:1007EF000080989898989898989888800818181862
:1007FF00F8F8F818181898981C1C1810000000002A
:10080F00000000000000F8F8F81919191818FFFF78
:10081F00FF18191919FCFCF8100000000000000067
:10082F000000000000FFFFFF6363636363FFFFFFD0
:10083F00FF6363636363FFFFFE00000000000000BF
:10084F000001D9D9D9D9D9D9D9D94901C0C3C3FF41
:10085F00FFFFC3C3C3C3FFFFFFC2E0E0C0800000C0
:10086F000006060606060707070686C6F6FE7F3F42
:10087F007FF6E6C686070707060607070604000089
:10088F0040C0C0C0C0DFDFCFC6C6C6C6C6FFFFFFB1
:10089F00FFC6C6C6C6C6CFCFCFE0E0E0400000001F
:1008AF000000FCFCFC1818F8FCFC000000FCFCFC31
:1008BF0018181818181818FCFCF800000000000091
:1008CF000010303018181C0C0E0707030100000031
:1008DF0000000103070F0F1E1E3E3C1C0C00000002
:1008EF00000000000000000000000000003F3F3F3C
:1008FF003F000000000000000000000000000000AA
:10090F0000001F1F1F06061F1F1F0000003F3F1F75
:10091F00060606060606061F1F1F000000000080C1
:10092F0040202020202020202040C0C04020202018
:10093F0020202020204080FF00114411040000518E
:10094F000400FFFF00104510440000114400FF3F5A
:10095F002C341A161A161A161A343F3F341A161A4E
:10096F00161A161A342C3F8040202020FC04A808A9
:10097F005020C0C04020202020202020204080FF79
:10098F00001144113F4042900500FFFF0010451039
:10099F00440000114400FF3F2C341A161A161A1681
:1009AF001B363F3F341A161A161A161A342C3F806C
:1009BF0040202020202020202040C0C02090080868
:1009CF002444F820204080FF0011441104000051FE
:1009DF000400FFFF0012804942643F114400FF3FB3
:1009EF002C341A161A161A161A343F3F371B161ABA
:0A09FF00161A161A342C3F000000EF
:00000001FF
00001FF
09008082444F820204080FF001144A3
:100A1F0011040000510400FFFF0012804942643F9F
:100A2F00114400FF3F2C341A161A161A161A343FA7
:0F0A3F003F371B161A161A161A342C3F000000E8
:00000001FF
