:100100002100003922630ACD430A06041600219F0C
:100110000AC51E040660CDD0BFCD170A2314C11036
:10012000F011050421830A060ECDF1BFCD320AFE7F
:100130001E2812110504060E23CDF1BFCD320AFE92
:100140001E280218DCCD430A110300060B21680AA1
:10015000CDF1BF21730ACD6B0621050222F20021E9
:10016000030222F000EB3E3ECD62BECD320ADC80BF
:1001700006FE282805CD140618F13AF100FE03DA30
:100180008B01CA0804FE05DAEE04C8CD4206CD4351
:100190000A219D031100000618CDF1BFCDAD02323A
:1001A000E203C630110101CD62BE21B50311000288
:1001B0000618CDF1BFCDAD02F5C630110103CD62F9
:1001C000BEF1CB27CB27CB2732E30321F303CD8F1F
:1001D00002AF32FD03CD130ACD430A21CC03110235
:1001E000000616CDF1BFCDE3023AE203473AE6033B
:1001F00032FA01C5CD9B09E60FFE0030F76F2600ED
:10020000EB21430919C17EFE2028E2365F10DE3A59
:10021000E60321430911000147C53E5FEDA1D5E585
:10022000CC6903E1D11CC110F011E6032AE403CD2F
:100230005203F5CD6C022AEA03CDA302F120082374
:10024000CDA30221FD03343AE3033D32E303C2D8D8
:100250000121FD037ECD8F0221EC03110203061361
:10026000CDF1BFCD130ACDFDBCC3450128043EF03E
:1002700018023EED110003CD62BECD0B0ACD320354
:100280002143091100010630CDF1BFCDFDBCC936B7
:1002900030D60A38033418F9233630C60AC8343D3C
:1002A00020FCC97E3C3C20023E013D77C9CDFDBC0F
:1002B0000600FE2C282AFE2D2825FE2E2820FE349E
:1002C000281BFE352816FE362811FE3C280CFE3D64
:1002D0002807FE3E280218D504040404040404047C
:1002E0000478C92AF70CCDFF0311F90C2824D5CDC9
:1002F000B509225B09110000B7ED52E128153EFF58
:100300000EFFEDB1EB2A5B09CDFF03225B09EB2069
:10031000EDEBEB22E403AF0EFFEDB122E703792F03
:100320003D32E603AF0EFFEDB122EA03792F3D32F5
:10033000E903CD23092AE4031143093AE6034F06F2
:1003400000EDB02AE703115B093AE9034F0600ED1F
:10035000B0C90143091803015B09C51A47D1C51A81
:10036000EDA113C1C010F7AFC92B3687C5E5D51174
:1003700000012143090618CDF1BFCDB506D1E1C179
:10038000FE1F2806FEFFC87718E2D5E5C51100025A
:10039000215B090618CDF1BFC1E1D118CFB1C5C9A4
:1003A000B6BDDEA6C0B2CCDFBCC3B8C0DEBBB220D7
:1003B000317E393F20B6B2BDB3A6C0B2CCDFBCC3DC
:1003C000B8C0DEBBB220382A317E393F5FA6B3D237
:1003D000D62042533AB2D0A6D0D920454E543AC284
:1003E000B7DE00000000000000000000B6B2C4B399
:1003F000BDB33A000020BEB2B6B2BDB33A0000D5DC
:10040000110100B7ED52D1C9CD430A11040021C139
:1004100004060FCDF1BF21020122F000CD210721FA
:100420005B097EB7CA4501FE20CA45011143090197
:100430001800EDB0CD330911040221D004060BCD14
:10044000F1BF21020322F000CD5D073A5B09B7CA74
:100450004501CD9F04E5214309AF0EFFEDB101BD7C
:10046000F609E5C1D1214309EDB0215B09AF0EFFCB
:10047000EDB101A5F609E5C1215B09EDB0EBAF7760
:1004800023772336FF21F70C3411030421DB040604
:1004900013CDF1BFCDFDBCFE07CA0804C345012A38
:1004A000F70C110100CD800911F90CEBD83EFF0EBD
:1004B000FFEDB11BE5EB110100CD8009EBE130ED63
:1004C000C9B4B2C0DDBADEA6B2DAC3B8C0DEBBB210
:1004D000B2D0A6B2DAC3B8C0DEBBB2C2C2DEB9C304
:1004E000B6B7CFBDB63F20593AC2C2DEB9D9CD4268
:1004F00006CD430A21D9051102000613CDF1BF2113
:100500000000CD6F0521EC051102040612CDF1BFEC
:10051000CDFDBCFE07C245012AE403E53EFF01FF15
:1005200000EDB1E52AF70C013500CDFF0322F70CF1
:100530002821ED4BD705B7ED42282CEBE1E53EFF36
:10054000013C00EDB1EBCDFF03EB20F2D1D5B7EDCF
:1005500052E5C1E1D1EDB021FE051104050606CD3D
:10056000F1BFCDFDBC188701350018E7C34501E593
:10057000225B0922D70523CDFF0321F90C2005CDED
:1005800011031803CDFE022143091100010630CDED
:10059000F1BF2AEA03E57E21F303CD8F02E1237E3A
:1005A00021FD03CD8F0221EC031102030613CDF1CF
:1005B000BFCDFDBCED5BF70CE123CDFF032804FEAE
:1005C00020280AFE1F2808FE28C8E518E42B2B2344
:1005D000CD800930F818980000C3DEB0C0C9BEDD78
:1005E000C0B820B3B42CBCC02C454E54BAC9C3DE2D
:1005F000B0C0A6B9BCCFBDB63F20592F4E3FB9BC45
:10060000CFBCC021B6B7BAD1B6B7B6B4B9BD2020F9
:10061000D3C4DED9CDAC09FE013808280BFE03385F
:100620000C18F1211F0C180821670C180321AF0CBE
:1006300016020603C51E110618CDD0BF2314C11023
:10064000F3C92AF70C7CB7C07DB7C0CD430A21603F
:1006500006110601060BCDF1BFCDFDBCF1C345016E
:10066000C3DEB0C0B6DEB1D8CFBEDD06041602C50B
:100670001E040604CDF1BFCD170A1423C110F0C922
:10068000F5ED5BF0003E20CD62BEF1EBFE1F280FC2
:10069000FE20280218103AF300BC280A2518073A51
:1006A000F200BC280124F522F000EB3E3ECD62BEF4
:1006B000CD130AF1C9210707E5CDFDBCFE51CA6281
:1006C0000AFE18300D3D28263D210B0716005F1944
:1006D0007EC9FE1E281BFE28281AFE29281AFE3174
:1006E0002819FE322818FE392817FE3A2816F1AFCD
:1006F000C93E20C9E13EFFC93E6CC93E69C93E6F93
:10070000C93E70C93E1FC932F400C9717765727461
:1007100079756173646667686A6B7A786376626E0E
:100720006DCD7309E5CDB506E1B728F8FE1F281D8C
:10073000FEFF282877116F09CD8009300123E5EDF0
:100740005BF000215B090618CDF1BF18D836001107
:100750005C09CD800938E72B360018E2C9CD730952
:10076000AF32F50832F608E5CDB506E1B728F8FE58
:100770001FCAF708FEFF28E4CDB607E5F5ED5BF0EC
:1007800000215B090618CDF1BFF130DCE1116F09E2
:10079000CD800930D223F53E00FE0D280FFE093032
:1007A00007AF329807F118BF3EDE18023EDF77AF81
:1007B000329807F118C5E50821F5087EB7CA6F0819
:1007C000232B7E08FE612817FE692813FE75280F6B
:1007D000FE65280BFE6F2807FE6E283AC3700808D6
:1007E000212808010E00EDB9C26F08417832980740
:1007F0003E05CDF60926001129081908FE612812C8
:10080000FE69280DFE752808FE652803FE6F232368
:1008100023237EC3D1083EDDC3D1086B73746E6899
:100820006D797277677A646270B6B7B8B9BABBBCD3
:10083000BDBEBFC0C1C2C3C4C5C6C7C8C9CACBCC70
:10084000CDCECFD0D1D2D3D4B2D5B4D6D7D8D9DAB1
:10085000DBDCB2B3B4A6B6B7B8B9BABBBCBDBEBFD9
:10086000C0C1C2C3C4CACBCCCDCECACBCCCDCE08BE
:1008700011D108D5FE612847FE692846FE75284536
:10088000FE652844FE6F2843FE202842D111E90866
:10089000D5FE6BC8FE73C8FE74C8FE6EC8FE68C87D
:1008A000FE6DC8FE79C8FE72C8FE77C8FE67C8FE36
:1008B0007AC8FE64C8FE62C8FE70C8D1E1B7C93EFE
:1008C000B1C93EB2C93EB3C93EB4C93EB5C93E2066
:1008D000C9E177E521F508AF77237721910A110067
:1008E000050603CDF1BFE137C932F508110005CD8A
:1008F00062BEE1B7C90000E521F5085E1C1D2810A5
:10090000360023360021910A1100050603CDF1BF00
:10091000E13600115C09CD8009DA7B072B3600B780
:10092000C37B07D92143093600114409012F00ED8B
:10093000B0D9C9D9215B093600115C09011700ED56
:03094000B0D9C962
:10097300EB3E3ECD62BECD3309215B09C9D5E5B758
:10098300ED52E1D1C9F5CD9B09F5067FCD9B091049
:10099300FB6FF1CBBF67F1C9210000545D29291911
:1009A30011116419229C097CC9CD9B09E607C96F03
:1009B3002600E5CD8809D11301FF1FD9CD9B09D9A5
:1009C300FE803809D511010019D1C3DD09D5110104
:1009D30000B7ED52D1300BD5E12BCD80093803217F
:1009E3000000E5D5C5E1110100B7ED52E5C1D1E144
:1009F30020C9C9C5D55F1600210000B72807050423
:100A030028031910FDD1C1C93EFA180A3E78180609
:100A13003E5018023E28C5010000030000000000FC
:100A2300B8280218F5C1C93EC818063E0118023E8F
:100A330078C547C5CD53BEC138EBB70528E718F3D2
:100A43001600D5060C1E00C5D521910A060CCDD083
:100A5300BFD11C1CC110F0D1147AFE0620E4C931A9
:100A63000000C345014D4F44452053454C45435475
:100A7300B1C5B3D2B6B7BAD1B9BD2020B5DCD92040
:100A830070757368207370616365206B657900000E
:100A93000000000000000000000000000000103013
:100AA300303030303030FEFEFE303030303030FE0B
:100AB300FEFE3030303030303020000000000000C7
:100AC300000000040C3C7870040C3C78700000803B
:100AD300E07C3C1C0800000000000000000080983F
:100AE30098989898989898888008181818F8F8F89B
:100AF30018181898981C1C1810000000000000001B
:100B0300000000F8F8F81919191818FFFFFF181951
:100B13001919FCFCF81000000000000000000000A0
:100B23000000FFFFFF6363636363FFFFFFFF636314
:100B3300636363FFFFFE000000000000000001D9B3
:100B4300D9D9D9D9D9D9D94901C0C3C3FFFFFFC363
:100B5300C3C3C3FFFFFFC2E0E0C08000000006067E
:100B63000606060707070686C6F6FE7F3F7FF6E6FC
:100B7300C686070707060607070604000040C0C02D
:100B8300C0C0DFDFCFC6C6C6C6C6FFFFFFFFC6C6EF
:100B9300C6C6C6CFCFCFE0E0E0400000000000FCB7
:100BA300FCFC1818F8FCFC000000FCFCFC181818EE
:100BB30018181818FCFCF8000000000000001030A2
:100BC3003018181C0C0E0707030100000000000179
:100BD30003070F0F1E1E3E3C1C0C0000000000000C
:100BE300000000000000000000003F3F3F3F000006
:100BF3000000000000000000000000000000001FD3
:100C03001F1F06061F1F1F0000003F3F1F0606068B
:100C1300060606061F1F1F0000000000804020205C
:100C230020202020202040C0C04020202020202041
:100C330020204080FF00114411040000510400FFF4
:100C4300FF00104510440000114400FF3F2C341AEC
:100C5300161A161A161A343F3F341A161A161A168B
:100C63001A342C3F8040202020FC04A8085020C0C8
:100C7300C04020202020202020204080FF0011445D
:100C8300113F4042900500FFFF0010451044000053
:100C9300114400FF3F2C341A161A161A161B363F3E
:100CA3003F341A161A161A161A342C3F8040202085
:100CB30020202020202040C0C0209008082444F891
:100CC30020204080FF00114411040000510400FF64
:100CD300FF0012804942643F114400FF3F2C341A45
:100CE300161A161A161A343F3F371B161A161A16F7
:070CF3001A342C3F00000041
:00000001FF

:100D020020204080FF00114411040000510400FF24
:100D1200FF0012804942643F114400FF3F2C341A05
:100D2200161A161A161A343F3F371B161A161A16B7
:070D32001A342C3F00000001
:00000001FF
